EESchema Schematic File Version 4
LIBS:MSGarageDoorRemote-cache
EELAYER 26 0
EELAYER END
$Descr A4 11693 8268
encoding utf-8
Sheet 1 1
Title "MSGarageDoorRemote"
Date "2018-08-10"
Rev "1.1"
Comp ""
Comment1 ""
Comment2 ""
Comment3 ""
Comment4 ""
$EndDescr
$Comp
L MCU_Microchip_ATmega:ATmega328P-AU U1
U 1 1 5B6D4CC7
P 1775 2850
F 0 "U1" H 1325 1325 50  0000 C CNN
F 1 "ATmega328P-AU" H 1650 2750 50  0000 C CNN
F 2 "MSGarageDoorRemote_Footprints:TQFP-32_7x7mm_P0.8mm" H 1775 2850 50  0001 C CIN
F 3 "http://ww1.microchip.com/downloads/en/DeviceDoc/ATmega328_P%20AVR%20MCU%20with%20picoPower%20Technology%20Data%20Sheet%2040001984A.pdf" H 1775 2850 50  0001 C CNN
	1    1775 2850
	1    0    0    -1  
$EndComp
$Comp
L w_connectors:HEADER_3x2 J1
U 1 1 5B6D4FB9
P 4550 4325
F 0 "J1" H 4550 4550 60  0000 C CNN
F 1 "ICSP" H 4550 4556 60  0001 C CNN
F 2 "MSGarageDoorRemote_Footprints:pin_strip_3x2" H 4550 4325 60  0001 C CNN
F 3 "" H 4550 4325 60  0000 C CNN
	1    4550 4325
	1    0    0    -1  
$EndComp
Text Notes 7000 6800 0    118  ~ 0
WWW.CIRCUITEANDO.NET
Text Notes 7025 7050 0    50   ~ 0
Autor: JGReyes
$Comp
L power:+3V3 #PWR09
U 1 1 5B6D534D
P 3175 3150
F 0 "#PWR09" H 3175 3000 50  0001 C CNN
F 1 "+3V3" H 3190 3323 50  0000 C CNN
F 2 "" H 3175 3150 50  0001 C CNN
F 3 "" H 3175 3150 50  0001 C CNN
	1    3175 3150
	1    0    0    -1  
$EndComp
$Comp
L Device:R R2
U 1 1 5B6D538E
P 2975 3150
F 0 "R2" V 2875 3225 50  0000 C CNN
F 1 "1k" V 2875 3075 50  0000 C CNN
F 2 "MSGarageDoorRemote_Footprints:R_1206_3216Metric_Pad1.42x1.75mm_HandSolder" V 2905 3150 50  0001 C CNN
F 3 "~" H 2975 3150 50  0001 C CNN
	1    2975 3150
	0    -1   -1   0   
$EndComp
Wire Wire Line
	1775 1350 1775 1275
Wire Wire Line
	1875 1275 1875 1350
$Comp
L power:GNDREF #PWR01
U 1 1 5B6D5819
P 775 1925
F 0 "#PWR01" H 775 1675 50  0001 C CNN
F 1 "GNDREF" H 780 1752 50  0001 C CNN
F 2 "" H 775 1925 50  0001 C CNN
F 3 "" H 775 1925 50  0001 C CNN
	1    775  1925
	1    0    0    -1  
$EndComp
$Comp
L w_device:cap_np C1
U 1 1 5B6D5929
P 775 1775
F 0 "C1" H 853 1796 50  0000 L CNN
F 1 "100nF" H 853 1705 50  0000 L CNN
F 2 "MSGarageDoorRemote_Footprints:C_0805_2012Metric_Pad1.15x1.40mm_HandSolder" H 775 1775 60  0001 C CNN
F 3 "" H 775 1775 60  0000 C CNN
	1    775  1775
	1    0    0    -1  
$EndComp
Wire Wire Line
	1175 1650 775  1650
Wire Wire Line
	775  1725 775  1650
Wire Wire Line
	775  1875 775  1925
$Comp
L power:GNDREF #PWR03
U 1 1 5B6D5B8F
P 1775 4425
F 0 "#PWR03" H 1775 4175 50  0001 C CNN
F 1 "GNDREF" H 1780 4252 50  0001 C CNN
F 2 "" H 1775 4425 50  0001 C CNN
F 3 "" H 1775 4425 50  0001 C CNN
	1    1775 4425
	1    0    0    -1  
$EndComp
$Comp
L Device:Crystal Y1
U 1 1 5B6D5D07
P 3100 2300
F 0 "Y1" V 3054 2431 50  0000 L CNN
F 1 "16 Mhz" V 3145 2431 50  0000 L CNN
F 2 "MSGarageDoorRemote_Footprints:Crystal_SMD_Abracon_ABM3-2Pin_5.0x3.2mm_HandSoldering" H 3100 2300 50  0001 C CNN
F 3 "~" H 3100 2300 50  0001 C CNN
	1    3100 2300
	0    1    1    0   
$EndComp
$Comp
L w_device:cap_np C5
U 1 1 5B6D5DBF
P 3300 2125
F 0 "C5" V 3085 2100 50  0000 C CNN
F 1 "18pF" V 3176 2100 50  0000 C CNN
F 2 "MSGarageDoorRemote_Footprints:C_0805_2012Metric_Pad1.15x1.40mm_HandSolder" H 3300 2125 60  0001 C CNN
F 3 "" H 3300 2125 60  0000 C CNN
	1    3300 2125
	0    1    1    0   
$EndComp
$Comp
L w_device:cap_np C4
U 1 1 5B6D5E35
P 3250 2475
F 0 "C4" V 3127 2450 50  0000 C CNN
F 1 "18pF" V 3036 2450 50  0000 C CNN
F 2 "MSGarageDoorRemote_Footprints:C_0805_2012Metric_Pad1.15x1.40mm_HandSolder" H 3250 2475 60  0001 C CNN
F 3 "" H 3250 2475 60  0000 C CNN
	1    3250 2475
	0    -1   -1   0   
$EndComp
$Comp
L power:GNDREF #PWR011
U 1 1 5B6D609B
P 3650 2325
F 0 "#PWR011" H 3650 2075 50  0001 C CNN
F 1 "GNDREF" H 3655 2152 50  0001 C CNN
F 2 "" H 3650 2325 50  0001 C CNN
F 3 "" H 3650 2325 50  0001 C CNN
	1    3650 2325
	1    0    0    -1  
$EndComp
Wire Wire Line
	2375 2250 2925 2250
Wire Wire Line
	2925 2250 2925 2150
Wire Wire Line
	2925 2150 3100 2150
Wire Wire Line
	2375 2350 2925 2350
Wire Wire Line
	2925 2350 2925 2450
Wire Wire Line
	2925 2450 3100 2450
Wire Wire Line
	3200 2125 3100 2125
Wire Wire Line
	3100 2125 3100 2150
Connection ~ 3100 2150
Wire Wire Line
	3200 2475 3100 2475
Wire Wire Line
	3100 2475 3100 2450
Connection ~ 3100 2450
Wire Wire Line
	3350 2475 3525 2475
Wire Wire Line
	2825 3150 2375 3150
Wire Wire Line
	3125 3150 3175 3150
Wire Wire Line
	2375 2150 2750 2150
Text Label 2750 2150 2    50   ~ 0
SCK
Wire Wire Line
	2375 2050 2750 2050
Text Label 2750 2050 2    50   ~ 0
MISO
Wire Wire Line
	2375 1950 2750 1950
Text Label 2750 1950 2    50   ~ 0
MOSI
Wire Wire Line
	2375 3050 2775 3050
Text Label 2775 3050 2    50   ~ 0
SCL
Wire Wire Line
	2375 2950 2775 2950
Text Label 2775 2950 2    50   ~ 0
SDA
Wire Wire Line
	2375 3450 2775 3450
Text Label 2775 3450 2    50   ~ 0
TX
Wire Wire Line
	2375 3350 2775 3350
Text Label 2775 3350 2    50   ~ 0
RX
Wire Wire Line
	2375 3650 2775 3650
Text Label 2775 3150 2    50   ~ 0
RESET
$Comp
L w_device:cap_np C3
U 1 1 5B6DC297
P 2350 1075
F 0 "C3" H 2428 1096 50  0000 L CNN
F 1 "10uF" H 2428 1005 50  0000 L CNN
F 2 "MSGarageDoorRemote_Footprints:C_0805_2012Metric_Pad1.15x1.40mm_HandSolder" H 2350 1075 60  0001 C CNN
F 3 "" H 2350 1075 60  0000 C CNN
	1    2350 1075
	1    0    0    -1  
$EndComp
$Comp
L w_device:cap_np C2
U 1 1 5B6DC2F7
P 2200 1075
F 0 "C2" H 2123 1096 50  0000 R CNN
F 1 "100nF" H 2123 1005 50  0000 R CNN
F 2 "MSGarageDoorRemote_Footprints:C_0805_2012Metric_Pad1.15x1.40mm_HandSolder" H 2200 1075 60  0001 C CNN
F 3 "" H 2200 1075 60  0000 C CNN
	1    2200 1075
	1    0    0    -1  
$EndComp
$Comp
L power:+3V3 #PWR04
U 1 1 5B6DC92F
P 1825 900
F 0 "#PWR04" H 1825 750 50  0001 C CNN
F 1 "+3V3" H 1840 1073 50  0000 C CNN
F 2 "" H 1825 900 50  0001 C CNN
F 3 "" H 1825 900 50  0001 C CNN
	1    1825 900 
	1    0    0    -1  
$EndComp
Wire Wire Line
	4400 4225 4175 4225
Text Label 4175 4225 0    50   ~ 0
MISO
Wire Wire Line
	4400 4325 4175 4325
Wire Wire Line
	4400 4425 4175 4425
Wire Wire Line
	4700 4225 4925 4225
Wire Wire Line
	4700 4325 4925 4325
Wire Wire Line
	4700 4425 4925 4425
Text Label 4175 4325 0    50   ~ 0
SCK
Text Label 4175 4425 0    50   ~ 0
RESET
$Comp
L power:GNDREF #PWR019
U 1 1 5B6E51F5
P 4925 4425
F 0 "#PWR019" H 4925 4175 50  0001 C CNN
F 1 "GNDREF" H 4930 4252 50  0001 C CNN
F 2 "" H 4925 4425 50  0001 C CNN
F 3 "" H 4925 4425 50  0001 C CNN
	1    4925 4425
	1    0    0    -1  
$EndComp
Text Label 4925 4325 2    50   ~ 0
MOSI
$Comp
L RF_AM_FM:RFM69HW U5
U 1 1 5B6E971C
P 8500 2100
F 0 "U5" H 8150 2550 50  0000 C CNN
F 1 "RFM69HW-868S2" H 8925 2550 50  0000 C CNN
F 2 "MSGarageDoorRemote_Footprints:HOPERF_RFM69HW" H 8500 1500 50  0001 C CNN
F 3 "http://www.hoperf.com/upload/rf/RFM69HW-V1.3.pdf" H 8500 1800 50  0001 C CNN
	1    8500 2100
	1    0    0    -1  
$EndComp
$Comp
L Device:Antenna_Chip AE1
U 1 1 5B6E9980
P 9650 1700
F 0 "AE1" H 9829 1828 50  0000 L CNN
F 1 "ACAG1204-868-T" H 9829 1737 39  0000 L CNN
F 2 "MSGarageDoorRemote_Footprints:ACAG1204-868-T" H 9550 1875 50  0001 C CNN
F 3 "~" H 9550 1875 50  0001 C CNN
	1    9650 1700
	1    0    0    -1  
$EndComp
$Comp
L EEPROM:M24C32 U3
U 1 1 5B6EB299
P 4950 1650
F 0 "U3" H 4700 1900 50  0000 C CNN
F 1 "M24C32-RDW6TP" H 5300 1900 50  0000 C CNN
F 2 "MSGarageDoorRemote_Footprints:TSSOP-8_4.4x3mm_P0.65mm" H 4950 1050 50  0001 C CNN
F 3 "https://www.st.com/resource/en/datasheet/cd00001012.pdf" H 4950 1050 50  0001 C CNN
	1    4950 1650
	1    0    0    -1  
$EndComp
$Comp
L w_device:cap_np C14
U 1 1 5B6EB337
P 8850 1225
F 0 "C14" H 8773 1246 50  0000 R CNN
F 1 "100nF" H 8773 1155 50  0000 R CNN
F 2 "MSGarageDoorRemote_Footprints:C_0805_2012Metric_Pad1.15x1.40mm_HandSolder" H 8850 1225 60  0001 C CNN
F 3 "" H 8850 1225 60  0000 C CNN
	1    8850 1225
	1    0    0    -1  
$EndComp
$Comp
L w_device:cap_np C15
U 1 1 5B6EB411
P 9000 1225
F 0 "C15" H 9078 1246 50  0000 L CNN
F 1 "1uF" H 9078 1155 50  0000 L CNN
F 2 "MSGarageDoorRemote_Footprints:C_0603_1608Metric_Pad1.05x0.95mm_HandSolder" H 9000 1225 60  0001 C CNN
F 3 "" H 9000 1225 60  0000 C CNN
	1    9000 1225
	1    0    0    -1  
$EndComp
NoConn ~ 9000 2000
NoConn ~ 9000 2100
NoConn ~ 9000 2200
NoConn ~ 9000 2300
NoConn ~ 9000 2400
$Comp
L w_device:cap_np C13
U 1 1 5B6EF32C
P 7875 2450
F 0 "C13" H 7798 2471 50  0000 R CNN
F 1 "100nF" H 7798 2380 50  0000 R CNN
F 2 "MSGarageDoorRemote_Footprints:C_0805_2012Metric_Pad1.15x1.40mm_HandSolder" H 7875 2450 60  0001 C CNN
F 3 "" H 7875 2450 60  0000 C CNN
	1    7875 2450
	1    0    0    -1  
$EndComp
$Comp
L power:GNDREF #PWR032
U 1 1 5B6EF3AE
P 7875 2650
F 0 "#PWR032" H 7875 2400 50  0001 C CNN
F 1 "GNDREF" H 7880 2477 50  0001 C CNN
F 2 "" H 7875 2650 50  0001 C CNN
F 3 "" H 7875 2650 50  0001 C CNN
	1    7875 2650
	1    0    0    -1  
$EndComp
$Comp
L power:GNDREF #PWR034
U 1 1 5B6EF3D7
P 8600 2675
F 0 "#PWR034" H 8600 2425 50  0001 C CNN
F 1 "GNDREF" H 8605 2502 50  0001 C CNN
F 2 "" H 8600 2675 50  0001 C CNN
F 3 "" H 8600 2675 50  0001 C CNN
	1    8600 2675
	1    0    0    -1  
$EndComp
$Comp
L power:GNDREF #PWR021
U 1 1 5B6EF400
P 4950 2050
F 0 "#PWR021" H 4950 1800 50  0001 C CNN
F 1 "GNDREF" H 4955 1877 50  0001 C CNN
F 2 "" H 4950 2050 50  0001 C CNN
F 3 "" H 4950 2050 50  0001 C CNN
	1    4950 2050
	1    0    0    -1  
$EndComp
$Comp
L w_device:cap_np C7
U 1 1 5B6EF429
P 4850 1175
F 0 "C7" V 4625 1025 50  0000 C CNN
F 1 "100nF" V 4725 1100 50  0000 C CNN
F 2 "MSGarageDoorRemote_Footprints:C_0805_2012Metric_Pad1.15x1.40mm_HandSolder" H 4850 1175 60  0001 C CNN
F 3 "" H 4850 1175 60  0000 C CNN
	1    4850 1175
	0    1    1    0   
$EndComp
Wire Wire Line
	2375 3750 2775 3750
Text Label 2775 3750 2    50   ~ 0
POR
Wire Wire Line
	7875 2550 7875 2650
Wire Wire Line
	7875 2400 7875 2300
Wire Wire Line
	7875 2300 8000 2300
Text Label 7875 2300 2    50   ~ 0
POR
Text Label 2775 3650 2    50   ~ 0
DIO0
NoConn ~ 9750 1800
Wire Wire Line
	9000 1800 9550 1800
Text Label 9275 1900 2    50   ~ 0
DIO0
Wire Wire Line
	9275 1900 9000 1900
Wire Wire Line
	8600 2600 8600 2675
Wire Wire Line
	4950 1950 4950 2050
$Comp
L power:+3V3 #PWR033
U 1 1 5B719147
P 8500 1100
F 0 "#PWR033" H 8500 950 50  0001 C CNN
F 1 "+3V3" H 8515 1273 50  0000 C CNN
F 2 "" H 8500 1100 50  0001 C CNN
F 3 "" H 8500 1100 50  0001 C CNN
	1    8500 1100
	1    0    0    -1  
$EndComp
Wire Wire Line
	8000 1800 7725 1800
Wire Wire Line
	8000 1900 7725 1900
Wire Wire Line
	8000 2000 7725 2000
NoConn ~ 1175 1850
NoConn ~ 1175 1950
Wire Wire Line
	2375 3850 2775 3850
Text Label 2775 3850 2    50   ~ 0
NSS
Text Label 7725 2100 0    50   ~ 0
NSS
Text Label 7725 2000 0    50   ~ 0
MOSI
Text Label 7725 1900 0    50   ~ 0
MISO
Text Label 7725 1800 0    50   ~ 0
SCK
$Comp
L power:+3V3 #PWR020
U 1 1 5B731DA8
P 4950 1075
F 0 "#PWR020" H 4950 925 50  0001 C CNN
F 1 "+3V3" H 4965 1248 50  0000 C CNN
F 2 "" H 4950 1075 50  0001 C CNN
F 3 "" H 4950 1075 50  0001 C CNN
	1    4950 1075
	1    0    0    -1  
$EndComp
$Comp
L power:GNDREF #PWR016
U 1 1 5B735611
P 4675 1175
F 0 "#PWR016" H 4675 925 50  0001 C CNN
F 1 "GNDREF" H 4680 1002 50  0001 C CNN
F 2 "" H 4675 1175 50  0001 C CNN
F 3 "" H 4675 1175 50  0001 C CNN
	1    4675 1175
	1    0    0    -1  
$EndComp
Wire Wire Line
	4950 1075 4950 1175
Wire Wire Line
	4675 1175 4750 1175
Wire Wire Line
	4900 1175 4950 1175
Connection ~ 4950 1175
Wire Wire Line
	4950 1175 4950 1350
Wire Wire Line
	8850 1325 8850 1375
Wire Wire Line
	8850 1375 8925 1375
Wire Wire Line
	9000 1375 9000 1325
$Comp
L power:GNDREF #PWR035
U 1 1 5B7555AE
P 8925 1400
F 0 "#PWR035" H 8925 1150 50  0001 C CNN
F 1 "GNDREF" H 8930 1227 50  0001 C CNN
F 2 "" H 8925 1400 50  0001 C CNN
F 3 "" H 8925 1400 50  0001 C CNN
	1    8925 1400
	1    0    0    -1  
$EndComp
Wire Wire Line
	8925 1400 8925 1375
Connection ~ 8925 1375
Wire Wire Line
	8925 1375 9000 1375
Wire Wire Line
	9000 1175 9000 1150
Wire Wire Line
	9000 1150 8850 1150
Wire Wire Line
	8850 1175 8850 1150
Connection ~ 8850 1150
Wire Wire Line
	8850 1150 8500 1150
Wire Wire Line
	8500 1100 8500 1150
Connection ~ 8500 1150
Wire Wire Line
	8500 1150 8500 1600
Wire Wire Line
	1775 1275 1825 1275
Wire Wire Line
	1825 900  1825 975 
Connection ~ 1825 1275
Wire Wire Line
	1825 1275 1875 1275
Wire Wire Line
	2350 1025 2350 975 
Wire Wire Line
	2350 975  2200 975 
Connection ~ 1825 975 
Wire Wire Line
	1825 975  1825 1275
Wire Wire Line
	2200 1025 2200 975 
Connection ~ 2200 975 
Wire Wire Line
	2200 975  1825 975 
Wire Wire Line
	2200 1175 2200 1225
Wire Wire Line
	2200 1225 2275 1225
Wire Wire Line
	2350 1225 2350 1175
$Comp
L power:GNDREF #PWR06
U 1 1 5B766DD0
P 2275 1275
F 0 "#PWR06" H 2275 1025 50  0001 C CNN
F 1 "GNDREF" H 2280 1102 50  0001 C CNN
F 2 "" H 2275 1275 50  0001 C CNN
F 3 "" H 2275 1275 50  0001 C CNN
	1    2275 1275
	1    0    0    -1  
$EndComp
Wire Wire Line
	2275 1275 2275 1225
Connection ~ 2275 1225
Wire Wire Line
	2275 1225 2350 1225
Wire Wire Line
	2375 3950 2775 3950
Wire Wire Line
	2375 4050 2775 4050
NoConn ~ 2375 1650
NoConn ~ 2375 1750
NoConn ~ 2375 1850
NoConn ~ 2375 2650
NoConn ~ 2375 2750
NoConn ~ 2375 2850
Wire Wire Line
	3525 2475 3525 2300
Wire Wire Line
	3525 2125 3350 2125
Wire Wire Line
	3525 2300 3650 2300
Wire Wire Line
	3650 2300 3650 2325
Connection ~ 3525 2300
Wire Wire Line
	3525 2300 3525 2125
Wire Wire Line
	1775 4425 1775 4350
Wire Wire Line
	4550 1550 4475 1550
Wire Wire Line
	4475 1550 4475 1650
Wire Wire Line
	4550 1650 4475 1650
Connection ~ 4475 1650
Wire Wire Line
	4475 1650 4475 1750
Wire Wire Line
	4550 1750 4475 1750
Connection ~ 4475 1750
Wire Wire Line
	4475 1750 4475 1825
$Comp
L power:GNDREF #PWR014
U 1 1 5B798F7A
P 4475 1825
F 0 "#PWR014" H 4475 1575 50  0001 C CNN
F 1 "GNDREF" H 4480 1652 50  0001 C CNN
F 2 "" H 4475 1825 50  0001 C CNN
F 3 "" H 4475 1825 50  0001 C CNN
	1    4475 1825
	1    0    0    -1  
$EndComp
Text Label 5525 1550 2    50   ~ 0
SDA
Text Label 5525 1650 2    50   ~ 0
SCL
$Comp
L Device:R R5
U 1 1 5B7A1723
P 5775 1400
F 0 "R5" H 5845 1446 50  0000 L CNN
F 1 "4.7k" H 5845 1355 50  0000 L CNN
F 2 "MSGarageDoorRemote_Footprints:R_0805_2012Metric_Pad1.15x1.40mm_HandSolder" V 5705 1400 50  0001 C CNN
F 3 "~" H 5775 1400 50  0001 C CNN
	1    5775 1400
	1    0    0    -1  
$EndComp
$Comp
L Device:R R6
U 1 1 5B7A1787
P 6075 1400
F 0 "R6" H 6145 1446 50  0000 L CNN
F 1 "4.7k" H 6145 1355 50  0000 L CNN
F 2 "MSGarageDoorRemote_Footprints:R_0805_2012Metric_Pad1.15x1.40mm_HandSolder" V 6005 1400 50  0001 C CNN
F 3 "~" H 6075 1400 50  0001 C CNN
	1    6075 1400
	1    0    0    -1  
$EndComp
$Comp
L power:GNDREF #PWR023
U 1 1 5B7A7C28
P 5400 1775
F 0 "#PWR023" H 5400 1525 50  0001 C CNN
F 1 "GNDREF" H 5405 1602 50  0001 C CNN
F 2 "" H 5400 1775 50  0001 C CNN
F 3 "" H 5400 1775 50  0001 C CNN
	1    5400 1775
	1    0    0    -1  
$EndComp
Wire Wire Line
	5400 1775 5400 1750
Wire Wire Line
	5400 1750 5350 1750
Wire Wire Line
	4950 1175 5775 1175
Wire Wire Line
	6075 1175 6075 1250
Wire Wire Line
	5775 1250 5775 1175
Connection ~ 5775 1175
Wire Wire Line
	5775 1175 6075 1175
Wire Wire Line
	5350 1550 5775 1550
Wire Wire Line
	6075 1550 6075 1650
Wire Wire Line
	5350 1650 6075 1650
$Comp
L power:+BATT #PWR05
U 1 1 5B7BBE8D
P 4850 5500
F 0 "#PWR05" H 4850 5350 50  0001 C CNN
F 1 "+BATT" H 4850 5675 50  0000 C CNN
F 2 "" H 4850 5500 50  0001 C CNN
F 3 "" H 4850 5500 50  0001 C CNN
	1    4850 5500
	1    0    0    -1  
$EndComp
$Comp
L Device:Battery_Cell BT1
U 1 1 5B7BC053
P 5150 6900
F 0 "BT1" H 5268 6988 50  0000 L CNN
F 1 "1.5V AAA Battery" H 5268 6905 39  0000 L CNN
F 2 "MSGarageDoorRemote_Footprints:BatteryHolder_Keystone_2466_1xAAA" V 5150 6960 50  0001 C CNN
F 3 "~" V 5150 6960 50  0001 C CNN
	1    5150 6900
	1    0    0    -1  
$EndComp
$Comp
L power:GNDREF #PWR07
U 1 1 5B7BC227
P 5150 7050
F 0 "#PWR07" H 5150 6800 50  0001 C CNN
F 1 "GNDREF" H 5155 6877 50  0001 C CNN
F 2 "" H 5150 7050 50  0001 C CNN
F 3 "" H 5150 7050 50  0001 C CNN
	1    5150 7050
	1    0    0    -1  
$EndComp
$Comp
L Device:Polyfuse F1
U 1 1 5B7C2691
P 5150 6500
F 0 "F1" H 5238 6546 50  0000 L CNN
F 1 "MF-MSMF050-2" H 5238 6455 50  0000 L CNN
F 2 "MSGarageDoorRemote_Footprints:MF-MSMF_Bourns_PTC_HandSolder" H 5200 6300 50  0001 L CNN
F 3 "~" H 5150 6500 50  0001 C CNN
	1    5150 6500
	1    0    0    -1  
$EndComp
$Comp
L power:GNDREF #PWR02
U 1 1 5B7CBEF1
P 4425 6225
F 0 "#PWR02" H 4425 5975 50  0001 C CNN
F 1 "GNDREF" H 4430 6052 50  0001 C CNN
F 2 "" H 4425 6225 50  0001 C CNN
F 3 "" H 4425 6225 50  0001 C CNN
	1    4425 6225
	1    0    0    -1  
$EndComp
$Comp
L Device:D_Schottky D1
U 1 1 5B7CF5AD
P 4425 6025
F 0 "D1" V 4387 5947 50  0000 R CNN
F 1 "RB068LAM-40TFTR" V 4470 5947 39  0000 R CNN
F 2 "MSGarageDoorRemote_Footprints:SOD-128_HandSolder" H 4425 6025 50  0001 C CNN
F 3 "~" H 4425 6025 50  0001 C CNN
	1    4425 6025
	0    1    1    0   
$EndComp
Wire Wire Line
	4425 6225 4425 6175
$Comp
L power:+3V3 #PWR018
U 1 1 5B7E14A9
P 4925 4225
F 0 "#PWR018" H 4925 4075 50  0001 C CNN
F 1 "+3V3" H 4940 4398 50  0000 C CNN
F 2 "" H 4925 4225 50  0001 C CNN
F 3 "" H 4925 4225 50  0001 C CNN
	1    4925 4225
	1    0    0    -1  
$EndComp
$Comp
L Device:LED D2
U 1 1 5B7EF4C7
P 3175 4200
F 0 "D2" V 3213 4083 50  0000 R CNN
F 1 "LED" V 3122 4083 50  0000 R CNN
F 2 "MSGarageDoorRemote_Footprints:LED_D3.0mm" H 3175 4200 50  0001 C CNN
F 3 "~" H 3175 4200 50  0001 C CNN
	1    3175 4200
	0    -1   -1   0   
$EndComp
Wire Wire Line
	3075 4050 3175 4050
$Comp
L Device:R R1
U 1 1 5B7F63BD
P 2925 4050
F 0 "R1" V 3025 3975 50  0000 C CNN
F 1 "470" V 3025 4125 50  0000 C CNN
F 2 "MSGarageDoorRemote_Footprints:C_0805_2012Metric_Pad1.15x1.40mm_HandSolder" V 2855 4050 50  0001 C CNN
F 3 "~" H 2925 4050 50  0001 C CNN
	1    2925 4050
	0    1    1    0   
$EndComp
$Comp
L power:GNDREF #PWR010
U 1 1 5B7FD61A
P 3175 4400
F 0 "#PWR010" H 3175 4150 50  0001 C CNN
F 1 "GNDREF" H 3180 4227 50  0001 C CNN
F 2 "" H 3175 4400 50  0001 C CNN
F 3 "" H 3175 4400 50  0001 C CNN
	1    3175 4400
	1    0    0    -1  
$EndComp
Wire Wire Line
	3175 4400 3175 4350
$Comp
L dc_dc:TPS613221A U4
U 1 1 5B722ECA
P 5350 3050
F 0 "U4" H 5350 3425 50  0000 C CNN
F 1 "TPS613221ADBVR" H 5350 3334 50  0000 C CNN
F 2 "MSGarageDoorRemote_Footprints:SOT-23-5_HandSoldering" V 5370 3000 50  0001 C CNN
F 3 "" V 5370 3000 50  0001 C CNN
	1    5350 3050
	1    0    0    -1  
$EndComp
$Comp
L power:+3V3 #PWR08
U 1 1 5B72C78E
P 5450 5500
F 0 "#PWR08" H 5450 5350 50  0001 C CNN
F 1 "+3V3" H 5465 5673 50  0000 C CNN
F 2 "" H 5450 5500 50  0001 C CNN
F 3 "" H 5450 5500 50  0001 C CNN
	1    5450 5500
	1    0    0    -1  
$EndComp
$Comp
L power:GNDREF #PWR017
U 1 1 5B72C842
P 4750 2900
F 0 "#PWR017" H 4750 2650 50  0001 C CNN
F 1 "GNDREF" H 4755 2727 50  0001 C CNN
F 2 "" H 4750 2900 50  0001 C CNN
F 3 "" H 4750 2900 50  0001 C CNN
	1    4750 2900
	1    0    0    -1  
$EndComp
$Comp
L w_device:cap_np C6
U 1 1 5B72CA69
P 4475 3325
F 0 "C6" H 4398 3346 50  0000 R CNN
F 1 "2.2uF" H 4398 3255 50  0000 R CNN
F 2 "MSGarageDoorRemote_Footprints:C_0805_2012Metric_Pad1.15x1.40mm_HandSolder" H 4475 3325 60  0001 C CNN
F 3 "" H 4475 3325 60  0000 C CNN
	1    4475 3325
	1    0    0    -1  
$EndComp
$Comp
L w_device:cap_np C10
U 1 1 5B72CCF7
P 5875 3050
F 0 "C10" H 5953 3071 50  0000 L CNN
F 1 "22uF" H 5953 2980 50  0000 L CNN
F 2 "MSGarageDoorRemote_Footprints:C_0805_2012Metric_Pad1.15x1.40mm_HandSolder" H 5875 3050 60  0001 C CNN
F 3 "" H 5875 3050 60  0000 C CNN
	1    5875 3050
	1    0    0    -1  
$EndComp
$Comp
L Device:L_Small L1
U 1 1 5B7309A1
P 4775 3200
F 0 "L1" V 4850 3200 50  0000 C CNN
F 1 "4.7uH" V 4700 3200 50  0000 C CNN
F 2 "MSGarageDoorRemote_Footprints:L_1210_3225Metric_Pad1.42x2.65mm_HandSolder" H 4775 3200 50  0001 C CNN
F 3 "~" H 4775 3200 50  0001 C CNN
	1    4775 3200
	0    -1   -1   0   
$EndComp
$Comp
L Switch:SW_Push SW1
U 1 1 5B734B87
P 5150 6050
F 0 "SW1" V 5104 6198 50  0000 L CNN
F 1 "Open/Close Button" V 5200 6200 50  0000 L CNN
F 2 "MSGarageDoorRemote_Footprints:SW_SPST_FSM4JSMATR" H 5150 6250 50  0001 C CNN
F 3 "" H 5150 6250 50  0001 C CNN
	1    5150 6050
	0    1    1    0   
$EndComp
Wire Wire Line
	5150 5775 5150 5825
Wire Wire Line
	5150 6250 5150 6300
Wire Wire Line
	4425 5875 4425 5825
Connection ~ 5150 5825
Wire Wire Line
	5150 5825 5150 5850
$Comp
L power:+BATT #PWR013
U 1 1 5B74D58F
P 4275 3200
F 0 "#PWR013" H 4275 3050 50  0001 C CNN
F 1 "+BATT" H 4275 3400 50  0000 C CNN
F 2 "" H 4275 3200 50  0001 C CNN
F 3 "" H 4275 3200 50  0001 C CNN
	1    4275 3200
	1    0    0    -1  
$EndComp
Wire Wire Line
	4275 3200 4475 3200
Wire Wire Line
	4475 3275 4475 3200
Connection ~ 4475 3200
Wire Wire Line
	4475 3200 4675 3200
$Comp
L power:GNDREF #PWR015
U 1 1 5B754D35
P 4475 3500
F 0 "#PWR015" H 4475 3250 50  0001 C CNN
F 1 "GNDREF" H 4480 3327 50  0001 C CNN
F 2 "" H 4475 3500 50  0001 C CNN
F 3 "" H 4475 3500 50  0001 C CNN
	1    4475 3500
	1    0    0    -1  
$EndComp
Wire Wire Line
	4475 3500 4475 3425
Wire Wire Line
	4750 2900 4925 2900
Wire Wire Line
	4925 2900 4925 3050
Wire Wire Line
	4925 3050 5000 3050
$Comp
L power:GNDREF #PWR026
U 1 1 5B7606A9
P 5875 3225
F 0 "#PWR026" H 5875 2975 50  0001 C CNN
F 1 "GNDREF" H 5880 3052 50  0001 C CNN
F 2 "" H 5875 3225 50  0001 C CNN
F 3 "" H 5875 3225 50  0001 C CNN
	1    5875 3225
	1    0    0    -1  
$EndComp
Wire Wire Line
	5875 3150 5875 3225
Wire Wire Line
	5700 2900 5875 2900
Wire Wire Line
	5875 2825 5875 2900
Connection ~ 5875 2900
Wire Wire Line
	5875 2900 5875 3000
Wire Wire Line
	5025 6300 5150 6300
Connection ~ 5150 6300
Wire Wire Line
	5150 6300 5150 6350
Text Label 2775 3950 2    50   ~ 0
RELAY
Wire Wire Line
	7175 2300 7875 2300
Connection ~ 7875 2300
$Comp
L power:+3V3 #PWR029
U 1 1 5B79B9F3
P 7175 1675
F 0 "#PWR029" H 7175 1525 50  0001 C CNN
F 1 "+3V3" H 7190 1848 50  0000 C CNN
F 2 "" H 7175 1675 50  0001 C CNN
F 3 "" H 7175 1675 50  0001 C CNN
	1    7175 1675
	1    0    0    -1  
$EndComp
$Comp
L Device:R R7
U 1 1 5B7A1515
P 7275 3550
F 0 "R7" V 7068 3550 50  0000 C CNN
F 1 "470" V 7159 3550 50  0000 C CNN
F 2 "MSGarageDoorRemote_Footprints:R_0805_2012Metric_Pad1.15x1.40mm_HandSolder" V 7205 3550 50  0001 C CNN
F 3 "~" H 7275 3550 50  0001 C CNN
	1    7275 3550
	0    1    1    0   
$EndComp
$Comp
L power:GNDREF #PWR031
U 1 1 5B7A1955
P 7475 3750
F 0 "#PWR031" H 7475 3500 50  0001 C CNN
F 1 "GNDREF" H 7480 3577 50  0001 C CNN
F 2 "" H 7475 3750 50  0001 C CNN
F 3 "" H 7475 3750 50  0001 C CNN
	1    7475 3750
	1    0    0    -1  
$EndComp
$Comp
L Connector:Screw_Terminal_01x02 J3
U 1 1 5B7B68C0
P 8550 3600
F 0 "J3" H 8629 3592 50  0000 L CNN
F 1 "open/close door contacts" H 8629 3501 50  0000 L CNN
F 2 "MSGarageDoorRemote_Footprints:mors_2p" H 8550 3600 50  0001 C CNN
F 3 "~" H 8550 3600 50  0001 C CNN
	1    8550 3600
	1    0    0    -1  
$EndComp
Text Label 6825 3550 0    50   ~ 0
RELAY
$Comp
L Connector:Screw_Terminal_01x02 J2
U 1 1 5B7CE240
P 1850 6600
F 0 "J2" H 1875 6300 50  0000 C CNN
F 1 "From power source on motor unit" H 2425 6550 39  0000 C CNN
F 2 "MSGarageDoorRemote_Footprints:mors_2p" H 1850 6600 50  0001 C CNN
F 3 "~" H 1850 6600 50  0001 C CNN
	1    1850 6600
	-1   0    0    -1  
$EndComp
$Comp
L power:+3V3 #PWR025
U 1 1 5B7E7656
P 5875 2825
F 0 "#PWR025" H 5875 2675 50  0001 C CNN
F 1 "+3V3" H 5890 2998 50  0000 C CNN
F 2 "" H 5875 2825 50  0001 C CNN
F 3 "" H 5875 2825 50  0001 C CNN
	1    5875 2825
	1    0    0    -1  
$EndComp
$Comp
L Jumper:SolderJumper_3_Open JP2
U 1 1 5B7FC98D
P 5150 5625
F 0 "JP2" H 5150 5750 50  0000 C CNN
F 1 "SolderJumper" H 5150 5731 39  0001 C CNN
F 2 "MSGarageDoorRemote_Footprints:SolderJumper-3_P1.3mm_Open_RoundedPad1.0x1.5mm_NumberLabels" H 5150 5625 50  0001 C CNN
F 3 "~" H 5150 5625 50  0001 C CNN
	1    5150 5625
	1    0    0    -1  
$EndComp
Wire Wire Line
	4850 5500 4850 5625
Wire Wire Line
	4850 5625 4950 5625
Wire Wire Line
	5350 5625 5450 5625
Wire Wire Line
	5450 5625 5450 5500
$Comp
L Jumper:SolderJumper_2_Open JP1
U 1 1 5B80AECD
P 5025 6075
F 0 "JP1" V 5025 6300 50  0000 R CNN
F 1 "SolderJumper" V 4925 6500 39  0001 R CNN
F 2 "MSGarageDoorRemote_Footprints:SolderJumper-2_P1.3mm_Open_RoundedPad1.0x1.5mm" H 5025 6075 50  0001 C CNN
F 3 "~" H 5025 6075 50  0001 C CNN
	1    5025 6075
	0    -1   -1   0   
$EndComp
Wire Wire Line
	4425 5825 5025 5825
Wire Wire Line
	5025 5925 5025 5825
Connection ~ 5025 5825
Wire Wire Line
	5025 5825 5150 5825
Wire Wire Line
	5025 6225 5025 6300
Wire Notes Line
	625  600  625  4575
Wire Notes Line
	625  4575 3775 4575
Wire Notes Line
	3775 4575 3775 600 
Wire Notes Line
	3775 600  625  600 
Text Notes 2400 825  0    118  ~ 0
Microcontroller
Wire Notes Line
	4100 600  6425 600 
Wire Notes Line
	6425 600  6425 2200
Wire Notes Line
	6425 2200 4100 2200
Wire Notes Line
	4100 2200 4100 600 
Text Notes 5700 800  0    118  ~ 0
Eeprom
Wire Notes Line
	11025 600  11025 2825
Wire Notes Line
	11025 2825 6675 2825
Wire Notes Line
	6675 2825 6675 600 
Wire Notes Line
	6675 600  11025 600 
Text Notes 10025 850  0    118  ~ 0
RF Module
Wire Notes Line
	4100 3650 4100 2300
Text Notes 4975 2425 0    79   ~ 0
DC-DC Boost Converter
Wire Notes Line
	6425 2300 6425 3650
Wire Notes Line
	4100 3650 6425 3650
Wire Notes Line
	4100 2300 6425 2300
Wire Notes Line
	6675 3075 9700 3075
Wire Notes Line
	9700 3075 9700 4050
Wire Notes Line
	9700 4050 6675 4050
Wire Notes Line
	6675 4050 6675 3075
Text Notes 7450 3225 0    59   ~ 0
For motor unit only. To open/close garage door
Text Notes 5100 2550 0    59   ~ 0
For remote control unit only
Wire Notes Line
	4100 4575 5100 4575
Wire Notes Line
	5100 4575 5100 3775
Wire Notes Line
	5100 3775 4100 3775
Wire Notes Line
	4100 3775 4100 4575
Text Notes 4850 3900 0    59   ~ 0
ICSP
Text Notes 3925 4975 0    71   ~ 0
Power source selector and protection circuit
$Comp
L Connector:TestPoint TP1
U 1 1 5B969645
P 5775 4175
F 0 "TP1" V 5729 4363 50  0000 L CNN
F 1 "TestPoint" V 5820 4363 50  0000 L CNN
F 2 "MSGarageDoorRemote_Footprints:TestPoint_Pad_D1.5mm" H 5975 4175 50  0001 C CNN
F 3 "~" H 5975 4175 50  0001 C CNN
	1    5775 4175
	0    1    1    0   
$EndComp
$Comp
L Connector:TestPoint TP2
U 1 1 5B9698D6
P 5775 4400
F 0 "TP2" V 5729 4588 50  0000 L CNN
F 1 "TestPoint" V 5820 4588 50  0000 L CNN
F 2 "MSGarageDoorRemote_Footprints:TestPoint_Pad_D1.5mm" H 5975 4400 50  0001 C CNN
F 3 "~" H 5975 4400 50  0001 C CNN
	1    5775 4400
	0    1    1    0   
$EndComp
Text Label 5525 4175 0    50   ~ 0
RX
Text Label 5525 4400 0    50   ~ 0
TX
Wire Wire Line
	5525 4175 5775 4175
Wire Wire Line
	5525 4400 5775 4400
Wire Notes Line
	6425 3775 6425 4575
Wire Notes Line
	6425 4575 5400 4575
Wire Notes Line
	5400 4575 5400 3775
Wire Notes Line
	5400 3775 6425 3775
Text Notes 5475 3900 0    47   ~ 0
Serial Interface for debug
$Comp
L Jumper:SolderJumper_2_Open JP3
U 1 1 5B990CCD
P 7175 2150
F 0 "JP3" V 7175 2375 50  0000 R CNN
F 1 "SolderJumper" V 7075 2575 39  0001 R CNN
F 2 "MSGarageDoorRemote_Footprints:SolderJumper-2_P1.3mm_Open_RoundedPad1.0x1.5mm" H 7175 2150 50  0001 C CNN
F 3 "~" H 7175 2150 50  0001 C CNN
	1    7175 2150
	0    -1   -1   0   
$EndComp
Wire Wire Line
	7175 1675 7175 1800
Text Notes 1175 7700 0    79   ~ 0
Note: This schematic is for use the same PCB in the remote control unit and the motor unit. \n
Text Notes 4550 6200 0    39   ~ 0
For motor unit
Text Notes 5300 6200 0    39   ~ 0
For remote control unit
Text Notes 4125 5625 0    39   ~ 0
For remote control unit
Text Notes 5475 5625 0    39   ~ 0
For motor unit
Text Notes 4475 6725 0    39   ~ 0
For motor unit
Text Notes 5275 7000 0    39   ~ 0
For remote control unit
$Comp
L dc_dc:TPS560430 U2
U 1 1 5B9A4638
P 7225 5150
F 0 "U2" H 7225 5501 39  0000 C CNN
F 1 "TPS560430" H 7225 5426 39  0000 C CNN
F 2 "MSGarageDoorRemote_Footprints:SOT-23-6_Handsoldering" H 7225 5150 39  0001 C CNN
F 3 "http://www.ti.com/lit/ds/symlink/tps560430.pdf" H 7225 5150 39  0001 C CNN
	1    7225 5150
	1    0    0    -1  
$EndComp
$Comp
L power:GNDREF #PWR012
U 1 1 5B9A46DE
P 6825 5150
F 0 "#PWR012" H 6825 4900 50  0001 C CNN
F 1 "GNDREF" H 6830 4977 50  0001 C CNN
F 2 "" H 6825 5150 50  0001 C CNN
F 3 "" H 6825 5150 50  0001 C CNN
	1    6825 5150
	1    0    0    -1  
$EndComp
$Comp
L Device:R R3
U 1 1 5B9A48F6
P 8275 5200
F 0 "R3" H 8225 5150 50  0000 R CNN
F 1 "51k 1%" H 8225 5250 39  0000 R CNN
F 2 "MSGarageDoorRemote_Footprints:R_0805_2012Metric_Pad1.15x1.40mm_HandSolder" V 8205 5200 50  0001 C CNN
F 3 "~" H 8275 5200 50  0001 C CNN
	1    8275 5200
	-1   0    0    1   
$EndComp
$Comp
L Device:R R4
U 1 1 5B9A49BC
P 8275 5575
F 0 "R4" H 8225 5525 50  0000 R CNN
F 1 "22.1k 1%" H 8225 5625 39  0000 R CNN
F 2 "MSGarageDoorRemote_Footprints:R_0805_2012Metric_Pad1.15x1.40mm_HandSolder" V 8205 5575 50  0001 C CNN
F 3 "~" H 8275 5575 50  0001 C CNN
	1    8275 5575
	-1   0    0    1   
$EndComp
$Comp
L w_device:cap_np C8
U 1 1 5B9AC8C0
P 7675 4825
F 0 "C8" H 7753 4846 50  0000 L CNN
F 1 "100nF" H 7753 4755 50  0000 L CNN
F 2 "MSGarageDoorRemote_Footprints:C_0805_2012Metric_Pad1.15x1.40mm_HandSolder" H 7675 4825 60  0001 C CNN
F 3 "" H 7675 4825 60  0000 C CNN
	1    7675 4825
	1    0    0    -1  
$EndComp
Wire Wire Line
	6875 5000 6850 5000
Wire Wire Line
	6850 5000 6850 4725
Wire Wire Line
	6850 4725 7675 4725
Wire Wire Line
	7675 4725 7675 4775
Wire Wire Line
	7575 5000 7675 5000
Wire Wire Line
	7675 5000 7675 4925
Wire Wire Line
	7675 5000 7975 5000
Connection ~ 7675 5000
$Comp
L Device:L_Small L2
U 1 1 5B9C4F99
P 8075 5000
F 0 "L2" V 8150 5000 50  0000 C CNN
F 1 "12uH" V 8000 5000 50  0000 C CNN
F 2 "MSGarageDoorRemote_Footprints:ABRACON ASPI-4030S" H 8075 5000 50  0001 C CNN
F 3 "~" H 8075 5000 50  0001 C CNN
	1    8075 5000
	0    -1   -1   0   
$EndComp
$Comp
L power:GNDREF #PWR024
U 1 1 5B9CDA54
P 8275 5800
F 0 "#PWR024" H 8275 5550 50  0001 C CNN
F 1 "GNDREF" H 8280 5627 50  0001 C CNN
F 2 "" H 8275 5800 50  0001 C CNN
F 3 "" H 8275 5800 50  0001 C CNN
	1    8275 5800
	1    0    0    -1  
$EndComp
Wire Wire Line
	8275 5800 8275 5725
Wire Wire Line
	8175 5000 8275 5000
Wire Wire Line
	8275 5000 8275 5050
$Comp
L w_device:cap_np C11
U 1 1 5B9EF399
P 8625 5050
F 0 "C11" H 8703 5071 50  0000 L CNN
F 1 "22uF" H 8703 4980 50  0000 L CNN
F 2 "MSGarageDoorRemote_Footprints:C_0805_2012Metric_Pad1.15x1.40mm_HandSolder" H 8625 5050 60  0001 C CNN
F 3 "" H 8625 5050 60  0000 C CNN
	1    8625 5050
	1    0    0    -1  
$EndComp
$Comp
L power:GNDREF #PWR027
U 1 1 5B9F8138
P 8625 5200
F 0 "#PWR027" H 8625 4950 50  0001 C CNN
F 1 "GNDREF" H 8630 5027 50  0001 C CNN
F 2 "" H 8625 5200 50  0001 C CNN
F 3 "" H 8625 5200 50  0001 C CNN
	1    8625 5200
	1    0    0    -1  
$EndComp
Wire Wire Line
	8625 5200 8625 5150
Wire Wire Line
	8625 4925 8625 5000
Connection ~ 8625 5000
Wire Wire Line
	6825 5150 6875 5150
$Comp
L w_device:cap_np C9
U 1 1 5BA13337
P 7700 5275
F 0 "C9" H 7775 5275 50  0000 L CNN
F 1 "2.2uF 50V" H 7775 5175 39  0000 L CNN
F 2 "MSGarageDoorRemote_Footprints:C_1210_3225Metric_Pad1.42x2.65mm_HandSolder" H 7700 5275 60  0001 C CNN
F 3 "" H 7700 5275 60  0000 C CNN
	1    7700 5275
	1    0    0    -1  
$EndComp
Wire Wire Line
	7575 5150 7600 5150
Wire Wire Line
	7575 5300 7600 5300
Wire Wire Line
	7600 5300 7600 5150
Text Label 7875 5150 2    39   ~ 0
Vout
Wire Wire Line
	8275 5350 8275 5375
$Comp
L power:GNDREF #PWR022
U 1 1 5BA2F442
P 7700 5425
F 0 "#PWR022" H 7700 5175 50  0001 C CNN
F 1 "GNDREF" H 7705 5252 50  0001 C CNN
F 2 "" H 7700 5425 50  0001 C CNN
F 3 "" H 7700 5425 50  0001 C CNN
	1    7700 5425
	1    0    0    -1  
$EndComp
Wire Wire Line
	6875 5600 8175 5600
Wire Wire Line
	8175 5600 8175 5375
Wire Wire Line
	8175 5375 8275 5375
Wire Wire Line
	6875 5300 6875 5600
Connection ~ 8275 5375
Wire Wire Line
	8275 5375 8275 5425
Wire Wire Line
	7700 5375 7700 5425
Connection ~ 7600 5150
Wire Wire Line
	7700 5225 7700 5150
Wire Wire Line
	7700 5150 7600 5150
Wire Wire Line
	8275 5000 8625 5000
Connection ~ 8275 5000
Connection ~ 7700 5150
Wire Notes Line
	6675 4300 9000 4300
Wire Notes Line
	9000 5975 6675 5975
Text Notes 7525 4450 0    79   ~ 0
DC-DC Buck Converter
Text Notes 8025 4525 0    59   ~ 0
For motor unit only
Wire Notes Line
	9000 4300 9000 5975
Wire Notes Line
	6675 4300 6675 5975
$Comp
L Device:D_Bridge_+A-A D3
U 1 1 5BB53AE3
P 2550 6700
F 0 "D3" V 2700 6550 50  0000 R CNN
F 1 "DF1501S-T" V 2150 6925 50  0000 R CNN
F 2 "MSGarageDoorRemote_Footprints:Diode_Bridge_DFS_DI_HandSolder" H 2550 6700 50  0001 C CNN
F 3 "~" H 2550 6700 50  0001 C CNN
	1    2550 6700
	0    1    -1   0   
$EndComp
$Comp
L Device:CP_Small C12
U 1 1 5BB541D1
P 3025 6725
F 0 "C12" H 2937 6763 50  0000 R CNN
F 1 "220uF 50V" H 2937 6680 39  0000 R CNN
F 2 "MSGarageDoorRemote_Footprints:CP_Elec_10x10" H 3025 6725 50  0001 C CNN
F 3 "~" H 3025 6725 50  0001 C CNN
	1    3025 6725
	-1   0    0    -1  
$EndComp
Wire Wire Line
	2050 6600 2050 6325
Wire Wire Line
	2050 6325 2850 6325
Wire Wire Line
	2850 6325 2850 6700
Wire Wire Line
	2050 6700 2075 6700
Text Notes 1775 6750 2    39   ~ 0
4-24Vac
Wire Wire Line
	2550 6400 3025 6400
Wire Wire Line
	3025 6400 3025 6550
Wire Wire Line
	2550 7000 3025 7000
Wire Wire Line
	3025 7000 3025 6825
$Comp
L power:GNDREF #PWR028
U 1 1 5BBB2E72
P 3025 7050
F 0 "#PWR028" H 3025 6800 50  0001 C CNN
F 1 "GNDREF" H 3030 6877 50  0001 C CNN
F 2 "" H 3025 7050 50  0001 C CNN
F 3 "" H 3025 7050 50  0001 C CNN
	1    3025 7050
	-1   0    0    -1  
$EndComp
Wire Wire Line
	3025 7050 3025 7000
Connection ~ 3025 7000
Wire Wire Line
	3025 6550 3300 6550
Connection ~ 3025 6550
Wire Wire Line
	3025 6550 3025 6625
Text Label 3300 6550 2    39   ~ 0
Vout
Wire Wire Line
	5150 7000 5150 7050
Text Label 8800 4925 2    59   ~ 0
3.3V
Wire Wire Line
	8625 4925 8800 4925
Text Label 4725 6650 0    59   ~ 0
3.3V
Wire Wire Line
	5150 6650 5150 6700
Wire Wire Line
	4725 6650 5150 6650
Connection ~ 5150 6650
Wire Wire Line
	7700 5150 7875 5150
Wire Wire Line
	4875 3200 5000 3200
$Comp
L power:PWR_FLAG #FLG0101
U 1 1 5BC374BE
P 10475 5625
F 0 "#FLG0101" H 10475 5700 50  0001 C CNN
F 1 "PWR_FLAG" H 10475 5799 50  0000 C CNN
F 2 "" H 10475 5625 50  0001 C CNN
F 3 "~" H 10475 5625 50  0001 C CNN
	1    10475 5625
	1    0    0    -1  
$EndComp
Text Label 10900 5775 0    59   ~ 0
Vout
$Comp
L power:GNDREF #PWR0101
U 1 1 5BC378E2
P 10475 6275
F 0 "#PWR0101" H 10475 6025 50  0001 C CNN
F 1 "GNDREF" H 10480 6102 50  0001 C CNN
F 2 "" H 10475 6275 50  0001 C CNN
F 3 "" H 10475 6275 50  0001 C CNN
	1    10475 6275
	1    0    0    -1  
$EndComp
Text Label 10925 6350 0    59   ~ 0
3.3V
Wire Notes Line
	11125 5375 11125 6450
Wire Notes Line
	10275 6450 10275 5375
$Comp
L power:+BATT #PWR0102
U 1 1 5BC866D4
P 10475 5700
F 0 "#PWR0102" H 10475 5550 50  0001 C CNN
F 1 "+BATT" H 10475 5875 50  0000 C CNN
F 2 "" H 10475 5700 50  0001 C CNN
F 3 "" H 10475 5700 50  0001 C CNN
	1    10475 5700
	-1   0    0    1   
$EndComp
NoConn ~ 2375 3550
Wire Wire Line
	6825 3550 7125 3550
$Comp
L Relay_SolidState:CPC1017N U6
U 1 1 5B7B769C
P 7900 3650
F 0 "U6" H 7900 3975 50  0000 C CNN
F 1 "CPC1017N" H 7900 3884 50  0000 C CNN
F 2 "MSGarageDoorRemote_Footprints:SOP-4_3.8x4.1mm_P2.54mm" H 7700 3450 50  0001 L CIN
F 3 "http://www.ixysic.com/home/pdfs.nsf/www/CPC1017N.pdf/$file/CPC1017N.pdf" H 7850 3650 50  0001 L CNN
	1    7900 3650
	1    0    0    -1  
$EndComp
Wire Wire Line
	7425 3550 7600 3550
Wire Wire Line
	7475 3750 7600 3750
Wire Wire Line
	8350 3600 8350 3550
Wire Wire Line
	8350 3550 8200 3550
Wire Wire Line
	8350 3700 8350 3750
Wire Wire Line
	8350 3750 8200 3750
$Comp
L Device:Jumper_NO_Small JP4
U 1 1 5B8115C3
P 2150 6225
F 0 "JP4" H 2150 6318 50  0000 C CNN
F 1 "Jumper_NO_Small" H 2150 6319 50  0001 C CNN
F 2 "MSGarageDoorRemote_Footprints:SolderJumper-2_P1.3mm_Open_RoundedPad1.0x1.5mm_0.6mm_Gap" H 2150 6225 50  0001 C CNN
F 3 "~" H 2150 6225 50  0001 C CNN
	1    2150 6225
	1    0    0    -1  
$EndComp
$Comp
L Device:Jumper_NO_Small JP5
U 1 1 5B812309
P 2175 7000
F 0 "JP5" H 2175 6900 50  0000 C CNN
F 1 "Jumper_NO_Small" H 2225 6900 50  0001 C CNN
F 2 "MSGarageDoorRemote_Footprints:SolderJumper-2_P1.3mm_Open_RoundedPad1.0x1.5mm_0.6mm_Gap" H 2175 7000 50  0001 C CNN
F 3 "~" H 2175 7000 50  0001 C CNN
	1    2175 7000
	1    0    0    -1  
$EndComp
Wire Wire Line
	2050 6225 2050 6325
Connection ~ 2050 6325
Wire Wire Line
	2075 6700 2075 7000
Connection ~ 2075 6700
Wire Wire Line
	2075 6700 2250 6700
Wire Wire Line
	2275 7000 2550 7000
Connection ~ 2550 7000
Wire Wire Line
	2250 6225 3025 6225
Wire Wire Line
	3025 6225 3025 6400
Connection ~ 3025 6400
Text Notes 1775 6825 2    39   ~ 0
or 4-36 Vdc
Text Notes 1800 6525 0    59   ~ 0
+
Text Notes 1800 6850 0    59   ~ 0
-
Wire Notes Line
	6425 4825 6425 7250
Wire Notes Line
	6425 7250 625  7250
Wire Notes Line
	625  4825 6425 4825
Wire Notes Line
	625  4825 625  7250
Text Notes 750  5450 0    47   ~ 0
For regulated DC input DON'T populate D3 and C12,
Text Notes 750  5525 0    47   ~ 0
close jumper JP4, JP5, JP1 and JP2 terminals 2 and 3.
Text Notes 700  5325 0    59   ~ 0
For motor unit only.
Wire Notes Line
	700  5325 1625 5325
Wire Notes Line
	700  5425 725  5425
Wire Notes Line
	700  5625 725  5625
Text Notes 750  5650 0    47   ~ 0
For AC input populate D3 and C12,
Text Notes 750  5725 0    47   ~ 0
open jumper JP4 and JP5,
Text Notes 750  5800 0    47   ~ 0
close jumper JP1 and JP2 terminals 2 and 3.
NoConn ~ 2375 2550
$Comp
L power:PWR_FLAG #FLG0102
U 1 1 5B7D6E27
P 10900 5625
F 0 "#FLG0102" H 10900 5700 50  0001 C CNN
F 1 "PWR_FLAG" H 10900 5799 50  0000 C CNN
F 2 "" H 10900 5625 50  0001 C CNN
F 3 "~" H 10900 5625 50  0001 C CNN
	1    10900 5625
	1    0    0    -1  
$EndComp
$Comp
L power:PWR_FLAG #FLG0103
U 1 1 5B7E1CCF
P 10475 6175
F 0 "#FLG0103" H 10475 6250 50  0001 C CNN
F 1 "PWR_FLAG" H 10475 6349 50  0000 C CNN
F 2 "" H 10475 6175 50  0001 C CNN
F 3 "~" H 10475 6175 50  0001 C CNN
	1    10475 6175
	1    0    0    -1  
$EndComp
$Comp
L power:PWR_FLAG #FLG0104
U 1 1 5B7E1D40
P 10925 6175
F 0 "#FLG0104" H 10925 6250 50  0001 C CNN
F 1 "PWR_FLAG" H 10925 6349 50  0000 C CNN
F 2 "" H 10925 6175 50  0001 C CNN
F 3 "~" H 10925 6175 50  0001 C CNN
	1    10925 6175
	1    0    0    -1  
$EndComp
Wire Notes Line
	10275 5375 11125 5375
Wire Notes Line
	10275 6450 11125 6450
Wire Wire Line
	10475 5625 10475 5700
Wire Wire Line
	10900 5625 10900 5775
Wire Wire Line
	10925 6175 10925 6350
Wire Wire Line
	10475 6175 10475 6275
$Comp
L Device:R R8
U 1 1 5BAA7EC7
P 7450 1950
F 0 "R8" H 7520 1996 50  0000 L CNN
F 1 "10k" H 7520 1905 50  0000 L CNN
F 2 "MSGarageDoorRemote_Footprints:R_0805_2012Metric_Pad1.15x1.40mm_HandSolder" V 7380 1950 50  0001 C CNN
F 3 "~" H 7450 1950 50  0001 C CNN
	1    7450 1950
	1    0    0    -1  
$EndComp
Wire Wire Line
	7450 2100 8000 2100
Wire Wire Line
	7450 1800 7175 1800
Connection ~ 7175 1800
Wire Wire Line
	7175 1800 7175 2000
$EndSCHEMATC
