(module RF_Module:HOPERF_RFM69HW (layer F.Cu) (tedit 5A030172)
  (descr "Radio, RF, Module, http://www.hoperf.com/upload/rf/RFM69HW-V1.3.pdf")
  (tags "Radio RF Module")
  (attr smd)
  (fp_text reference U5 (at -7.8 -9) (layer F.SilkS)
    (effects (font (size 1 1) (thickness 0.15)))
  )
  (fp_text value RFM69HW-868S2 (at 0 2.5) (layer F.Fab)
    (effects (font (size 1 1) (thickness 0.15)))
  )
  (fp_line (start -9.85 8) (end -9.85 -8) (layer F.Fab) (width 0.1))
  (fp_line (start 9.85 8) (end -9.85 8) (layer F.Fab) (width 0.1))
  (fp_line (start 9.85 -8) (end 9.85 8) (layer F.Fab) (width 0.1))
  (fp_line (start -9.85 -8) (end 9.85 -8) (layer F.Fab) (width 0.1))
  (fp_line (start -10.05 -8.2) (end -10.05 -7.8) (layer F.SilkS) (width 0.1))
  (fp_line (start 10.05 -8.2) (end 10.05 -7.8) (layer F.SilkS) (width 0.1))
  (fp_line (start 9.55 -8.2) (end 10.05 -8.2) (layer F.SilkS) (width 0.1))
  (fp_line (start 10.05 7.8) (end 10.05 8.2) (layer F.SilkS) (width 0.1))
  (fp_line (start 9.55 8.2) (end 10.05 8.2) (layer F.SilkS) (width 0.1))
  (fp_line (start -10.05 7.8) (end -10.05 8.2) (layer F.SilkS) (width 0.1))
  (fp_line (start -10.05 8.2) (end -9.55 8.2) (layer F.SilkS) (width 0.1))
  (fp_text user %R (at 0 0) (layer F.Fab)
    (effects (font (size 1 1) (thickness 0.15)))
  )
  (fp_line (start -10.05 -8.2) (end -0.05 -8.2) (layer F.SilkS) (width 0.1))
  (fp_circle (center -7 -7) (end -7.5 -7) (layer F.Fab) (width 0.1))
  (fp_line (start -10.6 8.25) (end -10.6 -8.25) (layer F.CrtYd) (width 0.05))
  (fp_line (start 10.6 8.25) (end -10.6 8.25) (layer F.CrtYd) (width 0.05))
  (fp_line (start 10.6 -8.25) (end 10.6 8.25) (layer F.CrtYd) (width 0.05))
  (fp_line (start -10.6 -8.25) (end 10.6 -8.25) (layer F.CrtYd) (width 0.05))
  (pad 1 smd rect (at -9.1 -7) (size 2.5 1) (layers F.Cu F.Paste F.Mask))
  (pad 2 smd rect (at -9.1 -5) (size 2.5 1) (layers F.Cu F.Paste F.Mask))
  (pad 3 smd rect (at -9.1 -3) (size 2.5 1) (layers F.Cu F.Paste F.Mask))
  (pad 4 smd rect (at -9.1 -1) (size 2.5 1) (layers F.Cu F.Paste F.Mask))
  (pad 5 smd rect (at -9.1 1) (size 2.5 1) (layers F.Cu F.Paste F.Mask))
  (pad 6 smd rect (at -9.1 3) (size 2.5 1) (layers F.Cu F.Paste F.Mask))
  (pad 7 smd rect (at -9.1 5) (size 2.5 1) (layers F.Cu F.Paste F.Mask))
  (pad 8 smd rect (at -9.1 7) (size 2.5 1) (layers F.Cu F.Paste F.Mask))
  (pad 9 smd rect (at 9.1 7) (size 2.5 1) (layers F.Cu F.Paste F.Mask))
  (pad 10 smd rect (at 9.1 5) (size 2.5 1) (layers F.Cu F.Paste F.Mask))
  (pad 11 smd rect (at 9.1 3) (size 2.5 1) (layers F.Cu F.Paste F.Mask))
  (pad 12 smd rect (at 9.1 1) (size 2.5 1) (layers F.Cu F.Paste F.Mask))
  (pad 13 smd rect (at 9.1 -1) (size 2.5 1) (layers F.Cu F.Paste F.Mask))
  (pad 14 smd rect (at 9.1 -3) (size 2.5 1) (layers F.Cu F.Paste F.Mask))
  (pad 15 smd rect (at 9.1 -5) (size 2.5 1) (layers F.Cu F.Paste F.Mask))
  (pad 16 smd rect (at 9.1 -7) (size 2.5 1) (layers F.Cu F.Paste F.Mask))
  (model ${KISYS3DMOD}/RF_Module.3dshapes/HOPERF_RFM69HW.wrl
    (at (xyz 0 0 0))
    (scale (xyz 1 1 1))
    (rotate (xyz 0 0 0))
  )
)
