G04 #@! TF.GenerationSoftware,KiCad,Pcbnew,5.0.0+dfsg1-2*
G04 #@! TF.CreationDate,2018-09-24T13:35:07+02:00*
G04 #@! TF.ProjectId,MSGarageDoorRemote,4D53476172616765446F6F7252656D6F,1.0*
G04 #@! TF.SameCoordinates,Original*
G04 #@! TF.FileFunction,Legend,Bot*
G04 #@! TF.FilePolarity,Positive*
%FSLAX46Y46*%
G04 Gerber Fmt 4.6, Leading zero omitted, Abs format (unit mm)*
G04 Created by KiCad (PCBNEW 5.0.0+dfsg1-2) date Mon Sep 24 13:35:07 2018*
%MOMM*%
%LPD*%
G01*
G04 APERTURE LIST*
%ADD10C,0.200000*%
%ADD11C,0.120000*%
%ADD12C,0.254000*%
%ADD13C,0.150000*%
%ADD14C,0.304800*%
G04 APERTURE END LIST*
D10*
X159790000Y-100310000D02*
X162470000Y-100300000D01*
X159790000Y-87041842D02*
X162470000Y-87031842D01*
X161125000Y-88361842D02*
X161115000Y-85681842D01*
D11*
G04 #@! TO.C,U6*
X163200000Y-115180000D02*
X163200000Y-116680000D01*
X159200000Y-115180000D02*
X159200000Y-116680000D01*
X159193400Y-117911200D02*
X159200000Y-118080000D01*
X159200000Y-118080000D02*
X163200000Y-118080000D01*
X163200000Y-118080000D02*
X163200000Y-117730000D01*
X159193400Y-117911200D02*
X157593400Y-117911200D01*
X159200000Y-114130000D02*
X159200000Y-113780000D01*
X159200000Y-113780000D02*
X163200000Y-113780000D01*
X163200000Y-113780000D02*
X163200000Y-114130000D01*
D12*
G04 #@! TO.C,Door*
X157400000Y-111630000D02*
X156638000Y-111630000D01*
X156638000Y-111630000D02*
X156638000Y-101470000D01*
X156638000Y-101470000D02*
X157400000Y-101470000D01*
X165782000Y-111630000D02*
X165782000Y-101470000D01*
X165782000Y-101470000D02*
X164766000Y-101470000D01*
X164766000Y-101470000D02*
X164766000Y-111630000D01*
X164766000Y-111630000D02*
X165782000Y-111630000D01*
X165020000Y-111630000D02*
X157400000Y-111630000D01*
X157400000Y-101470000D02*
X165020000Y-101470000D01*
G04 #@! TO.C,Power*
X157320000Y-89070000D02*
X164940000Y-89070000D01*
X164940000Y-99230000D02*
X157320000Y-99230000D01*
X164686000Y-99230000D02*
X165702000Y-99230000D01*
X164686000Y-89070000D02*
X164686000Y-99230000D01*
X165702000Y-89070000D02*
X164686000Y-89070000D01*
X165702000Y-99230000D02*
X165702000Y-89070000D01*
X156558000Y-89070000D02*
X157320000Y-89070000D01*
X156558000Y-99230000D02*
X156558000Y-89070000D01*
X157320000Y-99230000D02*
X156558000Y-99230000D01*
D13*
G04 #@! TO.C,L2*
X155060600Y-80918000D02*
X155060600Y-82442000D01*
X158134000Y-80918000D02*
X158134000Y-82442000D01*
G04 #@! TO.C,D3*
X150364700Y-94249251D02*
G75*
G03X150441200Y-93361600I-101299J455852D01*
G01*
X150410647Y-92455078D02*
G75*
G03X150441200Y-93361600I132153J-449322D01*
G01*
X150339300Y-99151451D02*
G75*
G03X150415800Y-98263800I-101299J455852D01*
G01*
X150385247Y-97357278D02*
G75*
G03X150415800Y-98263800I132153J-449322D01*
G01*
X146174000Y-92752000D02*
X146174000Y-93768000D01*
X146199400Y-97832000D02*
X146199400Y-98848000D01*
X145691400Y-98340000D02*
X146707400Y-98340000D01*
D11*
X145134600Y-100100000D02*
X151734600Y-100100000D01*
X151734600Y-97400000D02*
X151734600Y-94200000D01*
X145134600Y-97400000D02*
X145134600Y-94200000D01*
X151734600Y-91500000D02*
X151734600Y-92300000D01*
X145134600Y-91500000D02*
X151734600Y-91500000D01*
X145134600Y-92300000D02*
X145134600Y-91500000D01*
X145132600Y-100092600D02*
X145132600Y-99584600D01*
X145132600Y-99584600D02*
X143100600Y-99584600D01*
X151734600Y-99338000D02*
X151734600Y-100100000D01*
G04 #@! TO.C,JP5*
X149516000Y-101950000D02*
G75*
G03X148816000Y-102650000I0J-700000D01*
G01*
X148816000Y-103250000D02*
G75*
G03X149516000Y-103950000I700000J0D01*
G01*
X151398600Y-103950000D02*
G75*
G03X152098600Y-103250000I0J700000D01*
G01*
X152098600Y-102650000D02*
G75*
G03X151398600Y-101950000I-700000J0D01*
G01*
X152098600Y-103250000D02*
X152098600Y-102650000D01*
X149530200Y-103940600D02*
X151384400Y-103940600D01*
X148816000Y-102650000D02*
X148816000Y-103250000D01*
X151409800Y-101959400D02*
X149504800Y-101959400D01*
G04 #@! TO.C,JP4*
X151389800Y-87869400D02*
X149484800Y-87869400D01*
X148796000Y-88560000D02*
X148796000Y-89160000D01*
X149510200Y-89850600D02*
X151364400Y-89850600D01*
X152078600Y-89160000D02*
X152078600Y-88560000D01*
X152078600Y-88560000D02*
G75*
G03X151378600Y-87860000I-700000J0D01*
G01*
X151378600Y-89860000D02*
G75*
G03X152078600Y-89160000I0J700000D01*
G01*
X148796000Y-89160000D02*
G75*
G03X149496000Y-89860000I700000J0D01*
G01*
X149496000Y-87860000D02*
G75*
G03X148796000Y-88560000I0J-700000D01*
G01*
G04 #@! TO.C,C2*
X140051252Y-109430000D02*
X139528748Y-109430000D01*
X140051252Y-110850000D02*
X139528748Y-110850000D01*
G04 #@! TO.C,C3*
X140051252Y-113140000D02*
X139528748Y-113140000D01*
X140051252Y-111720000D02*
X139528748Y-111720000D01*
G04 #@! TO.C,C8*
X148918748Y-80410000D02*
X149441252Y-80410000D01*
X148918748Y-81830000D02*
X149441252Y-81830000D01*
G04 #@! TO.C,C9*
X155260000Y-77082064D02*
X155260000Y-75877936D01*
X157980000Y-77082064D02*
X157980000Y-75877936D01*
G04 #@! TO.C,C11*
X152911252Y-82630000D02*
X152388748Y-82630000D01*
X152911252Y-84050000D02*
X152388748Y-84050000D01*
G04 #@! TO.C,C12*
X133095000Y-84115000D02*
X134345000Y-84115000D01*
X133720000Y-83490000D02*
X133720000Y-84740000D01*
X140675563Y-84980000D02*
X141740000Y-86044437D01*
X132284437Y-84980000D02*
X131220000Y-86044437D01*
X132284437Y-84980000D02*
X134970000Y-84980000D01*
X140675563Y-84980000D02*
X137990000Y-84980000D01*
X141740000Y-86044437D02*
X141740000Y-95500000D01*
X131220000Y-86044437D02*
X131220000Y-95500000D01*
X131220000Y-95500000D02*
X134970000Y-95500000D01*
X141740000Y-95500000D02*
X137990000Y-95500000D01*
G04 #@! TO.C,C13*
X165658748Y-75910000D02*
X166181252Y-75910000D01*
X165658748Y-74490000D02*
X166181252Y-74490000D01*
G04 #@! TO.C,C14*
X162360000Y-59708748D02*
X162360000Y-60231252D01*
X160940000Y-59708748D02*
X160940000Y-60231252D01*
G04 #@! TO.C,C15*
X159730000Y-59748733D02*
X159730000Y-60091267D01*
X158710000Y-59748733D02*
X158710000Y-60091267D01*
G04 #@! TO.C,JP3*
X165400000Y-80570000D02*
G75*
G03X166100000Y-81270000I700000J0D01*
G01*
X166700000Y-81270000D02*
G75*
G03X167400000Y-80570000I0J700000D01*
G01*
X167400000Y-79170000D02*
G75*
G03X166700000Y-78470000I-700000J0D01*
G01*
X166100000Y-78470000D02*
G75*
G03X165400000Y-79170000I0J-700000D01*
G01*
X166700000Y-78470000D02*
X166100000Y-78470000D01*
X167400000Y-80570000D02*
X167400000Y-79170000D01*
X166100000Y-81270000D02*
X166700000Y-81270000D01*
X165400000Y-79170000D02*
X165400000Y-80570000D01*
G04 #@! TO.C,R1*
X149070000Y-111928748D02*
X149070000Y-112451252D01*
X147650000Y-111928748D02*
X147650000Y-112451252D01*
G04 #@! TO.C,R3*
X146670000Y-78168748D02*
X146670000Y-78691252D01*
X145250000Y-78168748D02*
X145250000Y-78691252D01*
G04 #@! TO.C,R4*
X147320000Y-76108748D02*
X147320000Y-76631252D01*
X148740000Y-76108748D02*
X148740000Y-76631252D01*
G04 #@! TO.C,R7*
X154240000Y-115701252D02*
X154240000Y-115178748D01*
X155660000Y-115701252D02*
X155660000Y-115178748D01*
G04 #@! TO.C,U2*
X152420000Y-79950000D02*
X149470000Y-79950000D01*
X150620000Y-76730000D02*
X152420000Y-76730000D01*
G04 #@! TO.C,R8*
X160940000Y-68003748D02*
X160940000Y-68526252D01*
X162360000Y-68003748D02*
X162360000Y-68526252D01*
G04 #@! TO.C,U6*
D13*
X161961904Y-118882380D02*
X161961904Y-119691904D01*
X161914285Y-119787142D01*
X161866666Y-119834761D01*
X161771428Y-119882380D01*
X161580952Y-119882380D01*
X161485714Y-119834761D01*
X161438095Y-119787142D01*
X161390476Y-119691904D01*
X161390476Y-118882380D01*
X160485714Y-118882380D02*
X160676190Y-118882380D01*
X160771428Y-118930000D01*
X160819047Y-118977619D01*
X160914285Y-119120476D01*
X160961904Y-119310952D01*
X160961904Y-119691904D01*
X160914285Y-119787142D01*
X160866666Y-119834761D01*
X160771428Y-119882380D01*
X160580952Y-119882380D01*
X160485714Y-119834761D01*
X160438095Y-119787142D01*
X160390476Y-119691904D01*
X160390476Y-119453809D01*
X160438095Y-119358571D01*
X160485714Y-119310952D01*
X160580952Y-119263333D01*
X160771428Y-119263333D01*
X160866666Y-119310952D01*
X160914285Y-119358571D01*
X160961904Y-119453809D01*
G04 #@! TO.C,Door*
D14*
X167919428Y-104300285D02*
X166395428Y-104300285D01*
X166395428Y-104663142D01*
X166468000Y-104880857D01*
X166613142Y-105026000D01*
X166758285Y-105098571D01*
X167048571Y-105171142D01*
X167266285Y-105171142D01*
X167556571Y-105098571D01*
X167701714Y-105026000D01*
X167846857Y-104880857D01*
X167919428Y-104663142D01*
X167919428Y-104300285D01*
X167919428Y-106042000D02*
X167846857Y-105896857D01*
X167774285Y-105824285D01*
X167629142Y-105751714D01*
X167193714Y-105751714D01*
X167048571Y-105824285D01*
X166976000Y-105896857D01*
X166903428Y-106042000D01*
X166903428Y-106259714D01*
X166976000Y-106404857D01*
X167048571Y-106477428D01*
X167193714Y-106550000D01*
X167629142Y-106550000D01*
X167774285Y-106477428D01*
X167846857Y-106404857D01*
X167919428Y-106259714D01*
X167919428Y-106042000D01*
X167919428Y-107420857D02*
X167846857Y-107275714D01*
X167774285Y-107203142D01*
X167629142Y-107130571D01*
X167193714Y-107130571D01*
X167048571Y-107203142D01*
X166976000Y-107275714D01*
X166903428Y-107420857D01*
X166903428Y-107638571D01*
X166976000Y-107783714D01*
X167048571Y-107856285D01*
X167193714Y-107928857D01*
X167629142Y-107928857D01*
X167774285Y-107856285D01*
X167846857Y-107783714D01*
X167919428Y-107638571D01*
X167919428Y-107420857D01*
X167919428Y-108582000D02*
X166903428Y-108582000D01*
X167193714Y-108582000D02*
X167048571Y-108654571D01*
X166976000Y-108727142D01*
X166903428Y-108872285D01*
X166903428Y-109017428D01*
G04 #@! TO.C,Power*
X167919428Y-91138285D02*
X166395428Y-91138285D01*
X166395428Y-91718857D01*
X166468000Y-91864000D01*
X166540571Y-91936571D01*
X166685714Y-92009142D01*
X166903428Y-92009142D01*
X167048571Y-91936571D01*
X167121142Y-91864000D01*
X167193714Y-91718857D01*
X167193714Y-91138285D01*
X167919428Y-92880000D02*
X167846857Y-92734857D01*
X167774285Y-92662285D01*
X167629142Y-92589714D01*
X167193714Y-92589714D01*
X167048571Y-92662285D01*
X166976000Y-92734857D01*
X166903428Y-92880000D01*
X166903428Y-93097714D01*
X166976000Y-93242857D01*
X167048571Y-93315428D01*
X167193714Y-93388000D01*
X167629142Y-93388000D01*
X167774285Y-93315428D01*
X167846857Y-93242857D01*
X167919428Y-93097714D01*
X167919428Y-92880000D01*
X166903428Y-93896000D02*
X167919428Y-94186285D01*
X167193714Y-94476571D01*
X167919428Y-94766857D01*
X166903428Y-95057142D01*
X167846857Y-96218285D02*
X167919428Y-96073142D01*
X167919428Y-95782857D01*
X167846857Y-95637714D01*
X167701714Y-95565142D01*
X167121142Y-95565142D01*
X166976000Y-95637714D01*
X166903428Y-95782857D01*
X166903428Y-96073142D01*
X166976000Y-96218285D01*
X167121142Y-96290857D01*
X167266285Y-96290857D01*
X167411428Y-95565142D01*
X167919428Y-96944000D02*
X166903428Y-96944000D01*
X167193714Y-96944000D02*
X167048571Y-97016571D01*
X166976000Y-97089142D01*
X166903428Y-97234285D01*
X166903428Y-97379428D01*
G04 #@! TO.C,L2*
D13*
X156756666Y-85182380D02*
X157232857Y-85182380D01*
X157232857Y-84182380D01*
X156470952Y-84277619D02*
X156423333Y-84230000D01*
X156328095Y-84182380D01*
X156090000Y-84182380D01*
X155994761Y-84230000D01*
X155947142Y-84277619D01*
X155899523Y-84372857D01*
X155899523Y-84468095D01*
X155947142Y-84610952D01*
X156518571Y-85182380D01*
X155899523Y-85182380D01*
G04 #@! TO.C,D3*
X148918695Y-101403180D02*
X148918695Y-100403180D01*
X148680600Y-100403180D01*
X148537742Y-100450800D01*
X148442504Y-100546038D01*
X148394885Y-100641276D01*
X148347266Y-100831752D01*
X148347266Y-100974609D01*
X148394885Y-101165085D01*
X148442504Y-101260323D01*
X148537742Y-101355561D01*
X148680600Y-101403180D01*
X148918695Y-101403180D01*
X148013933Y-100403180D02*
X147394885Y-100403180D01*
X147728219Y-100784133D01*
X147585361Y-100784133D01*
X147490123Y-100831752D01*
X147442504Y-100879371D01*
X147394885Y-100974609D01*
X147394885Y-101212704D01*
X147442504Y-101307942D01*
X147490123Y-101355561D01*
X147585361Y-101403180D01*
X147871076Y-101403180D01*
X147966314Y-101355561D01*
X148013933Y-101307942D01*
D10*
D13*
G04 #@! TO.C,JP5*
X151303333Y-104322380D02*
X151303333Y-105036666D01*
X151350952Y-105179523D01*
X151446190Y-105274761D01*
X151589047Y-105322380D01*
X151684285Y-105322380D01*
X150827142Y-105322380D02*
X150827142Y-104322380D01*
X150446190Y-104322380D01*
X150350952Y-104370000D01*
X150303333Y-104417619D01*
X150255714Y-104512857D01*
X150255714Y-104655714D01*
X150303333Y-104750952D01*
X150350952Y-104798571D01*
X150446190Y-104846190D01*
X150827142Y-104846190D01*
X149350952Y-104322380D02*
X149827142Y-104322380D01*
X149874761Y-104798571D01*
X149827142Y-104750952D01*
X149731904Y-104703333D01*
X149493809Y-104703333D01*
X149398571Y-104750952D01*
X149350952Y-104798571D01*
X149303333Y-104893809D01*
X149303333Y-105131904D01*
X149350952Y-105227142D01*
X149398571Y-105274761D01*
X149493809Y-105322380D01*
X149731904Y-105322380D01*
X149827142Y-105274761D01*
X149874761Y-105227142D01*
G04 #@! TO.C,JP4*
X151283333Y-86512380D02*
X151283333Y-87226666D01*
X151330952Y-87369523D01*
X151426190Y-87464761D01*
X151569047Y-87512380D01*
X151664285Y-87512380D01*
X150807142Y-87512380D02*
X150807142Y-86512380D01*
X150426190Y-86512380D01*
X150330952Y-86560000D01*
X150283333Y-86607619D01*
X150235714Y-86702857D01*
X150235714Y-86845714D01*
X150283333Y-86940952D01*
X150330952Y-86988571D01*
X150426190Y-87036190D01*
X150807142Y-87036190D01*
X149378571Y-86845714D02*
X149378571Y-87512380D01*
X149616666Y-86464761D02*
X149854761Y-87179047D01*
X149235714Y-87179047D01*
G04 #@! TO.C,C2*
X137056666Y-110497142D02*
X137104285Y-110544761D01*
X137247142Y-110592380D01*
X137342380Y-110592380D01*
X137485238Y-110544761D01*
X137580476Y-110449523D01*
X137628095Y-110354285D01*
X137675714Y-110163809D01*
X137675714Y-110020952D01*
X137628095Y-109830476D01*
X137580476Y-109735238D01*
X137485238Y-109640000D01*
X137342380Y-109592380D01*
X137247142Y-109592380D01*
X137104285Y-109640000D01*
X137056666Y-109687619D01*
X136675714Y-109687619D02*
X136628095Y-109640000D01*
X136532857Y-109592380D01*
X136294761Y-109592380D01*
X136199523Y-109640000D01*
X136151904Y-109687619D01*
X136104285Y-109782857D01*
X136104285Y-109878095D01*
X136151904Y-110020952D01*
X136723333Y-110592380D01*
X136104285Y-110592380D01*
G04 #@! TO.C,C3*
X137056666Y-112787142D02*
X137104285Y-112834761D01*
X137247142Y-112882380D01*
X137342380Y-112882380D01*
X137485238Y-112834761D01*
X137580476Y-112739523D01*
X137628095Y-112644285D01*
X137675714Y-112453809D01*
X137675714Y-112310952D01*
X137628095Y-112120476D01*
X137580476Y-112025238D01*
X137485238Y-111930000D01*
X137342380Y-111882380D01*
X137247142Y-111882380D01*
X137104285Y-111930000D01*
X137056666Y-111977619D01*
X136723333Y-111882380D02*
X136104285Y-111882380D01*
X136437619Y-112263333D01*
X136294761Y-112263333D01*
X136199523Y-112310952D01*
X136151904Y-112358571D01*
X136104285Y-112453809D01*
X136104285Y-112691904D01*
X136151904Y-112787142D01*
X136199523Y-112834761D01*
X136294761Y-112882380D01*
X136580476Y-112882380D01*
X136675714Y-112834761D01*
X136723333Y-112787142D01*
G04 #@! TO.C,C8*
X146506666Y-81477142D02*
X146554285Y-81524761D01*
X146697142Y-81572380D01*
X146792380Y-81572380D01*
X146935238Y-81524761D01*
X147030476Y-81429523D01*
X147078095Y-81334285D01*
X147125714Y-81143809D01*
X147125714Y-81000952D01*
X147078095Y-80810476D01*
X147030476Y-80715238D01*
X146935238Y-80620000D01*
X146792380Y-80572380D01*
X146697142Y-80572380D01*
X146554285Y-80620000D01*
X146506666Y-80667619D01*
X145935238Y-81000952D02*
X146030476Y-80953333D01*
X146078095Y-80905714D01*
X146125714Y-80810476D01*
X146125714Y-80762857D01*
X146078095Y-80667619D01*
X146030476Y-80620000D01*
X145935238Y-80572380D01*
X145744761Y-80572380D01*
X145649523Y-80620000D01*
X145601904Y-80667619D01*
X145554285Y-80762857D01*
X145554285Y-80810476D01*
X145601904Y-80905714D01*
X145649523Y-80953333D01*
X145744761Y-81000952D01*
X145935238Y-81000952D01*
X146030476Y-81048571D01*
X146078095Y-81096190D01*
X146125714Y-81191428D01*
X146125714Y-81381904D01*
X146078095Y-81477142D01*
X146030476Y-81524761D01*
X145935238Y-81572380D01*
X145744761Y-81572380D01*
X145649523Y-81524761D01*
X145601904Y-81477142D01*
X145554285Y-81381904D01*
X145554285Y-81191428D01*
X145601904Y-81096190D01*
X145649523Y-81048571D01*
X145744761Y-81000952D01*
G04 #@! TO.C,C9*
X156806666Y-73547142D02*
X156854285Y-73594761D01*
X156997142Y-73642380D01*
X157092380Y-73642380D01*
X157235238Y-73594761D01*
X157330476Y-73499523D01*
X157378095Y-73404285D01*
X157425714Y-73213809D01*
X157425714Y-73070952D01*
X157378095Y-72880476D01*
X157330476Y-72785238D01*
X157235238Y-72690000D01*
X157092380Y-72642380D01*
X156997142Y-72642380D01*
X156854285Y-72690000D01*
X156806666Y-72737619D01*
X156330476Y-73642380D02*
X156140000Y-73642380D01*
X156044761Y-73594761D01*
X155997142Y-73547142D01*
X155901904Y-73404285D01*
X155854285Y-73213809D01*
X155854285Y-72832857D01*
X155901904Y-72737619D01*
X155949523Y-72690000D01*
X156044761Y-72642380D01*
X156235238Y-72642380D01*
X156330476Y-72690000D01*
X156378095Y-72737619D01*
X156425714Y-72832857D01*
X156425714Y-73070952D01*
X156378095Y-73166190D01*
X156330476Y-73213809D01*
X156235238Y-73261428D01*
X156044761Y-73261428D01*
X155949523Y-73213809D01*
X155901904Y-73166190D01*
X155854285Y-73070952D01*
G04 #@! TO.C,C11*
X153292857Y-85427142D02*
X153340476Y-85474761D01*
X153483333Y-85522380D01*
X153578571Y-85522380D01*
X153721428Y-85474761D01*
X153816666Y-85379523D01*
X153864285Y-85284285D01*
X153911904Y-85093809D01*
X153911904Y-84950952D01*
X153864285Y-84760476D01*
X153816666Y-84665238D01*
X153721428Y-84570000D01*
X153578571Y-84522380D01*
X153483333Y-84522380D01*
X153340476Y-84570000D01*
X153292857Y-84617619D01*
X152340476Y-85522380D02*
X152911904Y-85522380D01*
X152626190Y-85522380D02*
X152626190Y-84522380D01*
X152721428Y-84665238D01*
X152816666Y-84760476D01*
X152911904Y-84808095D01*
X151388095Y-85522380D02*
X151959523Y-85522380D01*
X151673809Y-85522380D02*
X151673809Y-84522380D01*
X151769047Y-84665238D01*
X151864285Y-84760476D01*
X151959523Y-84808095D01*
G04 #@! TO.C,C12*
X130637142Y-89597142D02*
X130684761Y-89549523D01*
X130732380Y-89406666D01*
X130732380Y-89311428D01*
X130684761Y-89168571D01*
X130589523Y-89073333D01*
X130494285Y-89025714D01*
X130303809Y-88978095D01*
X130160952Y-88978095D01*
X129970476Y-89025714D01*
X129875238Y-89073333D01*
X129780000Y-89168571D01*
X129732380Y-89311428D01*
X129732380Y-89406666D01*
X129780000Y-89549523D01*
X129827619Y-89597142D01*
X130732380Y-90549523D02*
X130732380Y-89978095D01*
X130732380Y-90263809D02*
X129732380Y-90263809D01*
X129875238Y-90168571D01*
X129970476Y-90073333D01*
X130018095Y-89978095D01*
X129827619Y-90930476D02*
X129780000Y-90978095D01*
X129732380Y-91073333D01*
X129732380Y-91311428D01*
X129780000Y-91406666D01*
X129827619Y-91454285D01*
X129922857Y-91501904D01*
X130018095Y-91501904D01*
X130160952Y-91454285D01*
X130732380Y-90882857D01*
X130732380Y-91501904D01*
G04 #@! TO.C,C13*
X166552857Y-73897142D02*
X166600476Y-73944761D01*
X166743333Y-73992380D01*
X166838571Y-73992380D01*
X166981428Y-73944761D01*
X167076666Y-73849523D01*
X167124285Y-73754285D01*
X167171904Y-73563809D01*
X167171904Y-73420952D01*
X167124285Y-73230476D01*
X167076666Y-73135238D01*
X166981428Y-73040000D01*
X166838571Y-72992380D01*
X166743333Y-72992380D01*
X166600476Y-73040000D01*
X166552857Y-73087619D01*
X165600476Y-73992380D02*
X166171904Y-73992380D01*
X165886190Y-73992380D02*
X165886190Y-72992380D01*
X165981428Y-73135238D01*
X166076666Y-73230476D01*
X166171904Y-73278095D01*
X165267142Y-72992380D02*
X164648095Y-72992380D01*
X164981428Y-73373333D01*
X164838571Y-73373333D01*
X164743333Y-73420952D01*
X164695714Y-73468571D01*
X164648095Y-73563809D01*
X164648095Y-73801904D01*
X164695714Y-73897142D01*
X164743333Y-73944761D01*
X164838571Y-73992380D01*
X165124285Y-73992380D01*
X165219523Y-73944761D01*
X165267142Y-73897142D01*
G04 #@! TO.C,C14*
X162027142Y-62697142D02*
X162074761Y-62649523D01*
X162122380Y-62506666D01*
X162122380Y-62411428D01*
X162074761Y-62268571D01*
X161979523Y-62173333D01*
X161884285Y-62125714D01*
X161693809Y-62078095D01*
X161550952Y-62078095D01*
X161360476Y-62125714D01*
X161265238Y-62173333D01*
X161170000Y-62268571D01*
X161122380Y-62411428D01*
X161122380Y-62506666D01*
X161170000Y-62649523D01*
X161217619Y-62697142D01*
X162122380Y-63649523D02*
X162122380Y-63078095D01*
X162122380Y-63363809D02*
X161122380Y-63363809D01*
X161265238Y-63268571D01*
X161360476Y-63173333D01*
X161408095Y-63078095D01*
X161455714Y-64506666D02*
X162122380Y-64506666D01*
X161074761Y-64268571D02*
X161789047Y-64030476D01*
X161789047Y-64649523D01*
G04 #@! TO.C,C15*
X159597142Y-62697142D02*
X159644761Y-62649523D01*
X159692380Y-62506666D01*
X159692380Y-62411428D01*
X159644761Y-62268571D01*
X159549523Y-62173333D01*
X159454285Y-62125714D01*
X159263809Y-62078095D01*
X159120952Y-62078095D01*
X158930476Y-62125714D01*
X158835238Y-62173333D01*
X158740000Y-62268571D01*
X158692380Y-62411428D01*
X158692380Y-62506666D01*
X158740000Y-62649523D01*
X158787619Y-62697142D01*
X159692380Y-63649523D02*
X159692380Y-63078095D01*
X159692380Y-63363809D02*
X158692380Y-63363809D01*
X158835238Y-63268571D01*
X158930476Y-63173333D01*
X158978095Y-63078095D01*
X158692380Y-64554285D02*
X158692380Y-64078095D01*
X159168571Y-64030476D01*
X159120952Y-64078095D01*
X159073333Y-64173333D01*
X159073333Y-64411428D01*
X159120952Y-64506666D01*
X159168571Y-64554285D01*
X159263809Y-64601904D01*
X159501904Y-64601904D01*
X159597142Y-64554285D01*
X159644761Y-64506666D01*
X159692380Y-64411428D01*
X159692380Y-64173333D01*
X159644761Y-64078095D01*
X159597142Y-64030476D01*
G04 #@! TO.C,JP3*
X164052380Y-79036666D02*
X164766666Y-79036666D01*
X164909523Y-78989047D01*
X165004761Y-78893809D01*
X165052380Y-78750952D01*
X165052380Y-78655714D01*
X165052380Y-79512857D02*
X164052380Y-79512857D01*
X164052380Y-79893809D01*
X164100000Y-79989047D01*
X164147619Y-80036666D01*
X164242857Y-80084285D01*
X164385714Y-80084285D01*
X164480952Y-80036666D01*
X164528571Y-79989047D01*
X164576190Y-79893809D01*
X164576190Y-79512857D01*
X164052380Y-80417619D02*
X164052380Y-81036666D01*
X164433333Y-80703333D01*
X164433333Y-80846190D01*
X164480952Y-80941428D01*
X164528571Y-80989047D01*
X164623809Y-81036666D01*
X164861904Y-81036666D01*
X164957142Y-80989047D01*
X165004761Y-80941428D01*
X165052380Y-80846190D01*
X165052380Y-80560476D01*
X165004761Y-80465238D01*
X164957142Y-80417619D01*
G04 #@! TO.C,R1*
X147162380Y-112023333D02*
X146686190Y-111690000D01*
X147162380Y-111451904D02*
X146162380Y-111451904D01*
X146162380Y-111832857D01*
X146210000Y-111928095D01*
X146257619Y-111975714D01*
X146352857Y-112023333D01*
X146495714Y-112023333D01*
X146590952Y-111975714D01*
X146638571Y-111928095D01*
X146686190Y-111832857D01*
X146686190Y-111451904D01*
X147162380Y-112975714D02*
X147162380Y-112404285D01*
X147162380Y-112690000D02*
X146162380Y-112690000D01*
X146305238Y-112594761D01*
X146400476Y-112499523D01*
X146448095Y-112404285D01*
G04 #@! TO.C,R3*
X144762380Y-78263333D02*
X144286190Y-77930000D01*
X144762380Y-77691904D02*
X143762380Y-77691904D01*
X143762380Y-78072857D01*
X143810000Y-78168095D01*
X143857619Y-78215714D01*
X143952857Y-78263333D01*
X144095714Y-78263333D01*
X144190952Y-78215714D01*
X144238571Y-78168095D01*
X144286190Y-78072857D01*
X144286190Y-77691904D01*
X143762380Y-78596666D02*
X143762380Y-79215714D01*
X144143333Y-78882380D01*
X144143333Y-79025238D01*
X144190952Y-79120476D01*
X144238571Y-79168095D01*
X144333809Y-79215714D01*
X144571904Y-79215714D01*
X144667142Y-79168095D01*
X144714761Y-79120476D01*
X144762380Y-79025238D01*
X144762380Y-78739523D01*
X144714761Y-78644285D01*
X144667142Y-78596666D01*
G04 #@! TO.C,R4*
X148492380Y-73223333D02*
X148016190Y-72890000D01*
X148492380Y-72651904D02*
X147492380Y-72651904D01*
X147492380Y-73032857D01*
X147540000Y-73128095D01*
X147587619Y-73175714D01*
X147682857Y-73223333D01*
X147825714Y-73223333D01*
X147920952Y-73175714D01*
X147968571Y-73128095D01*
X148016190Y-73032857D01*
X148016190Y-72651904D01*
X147825714Y-74080476D02*
X148492380Y-74080476D01*
X147444761Y-73842380D02*
X148159047Y-73604285D01*
X148159047Y-74223333D01*
G04 #@! TO.C,R7*
X155106666Y-113362380D02*
X155440000Y-112886190D01*
X155678095Y-113362380D02*
X155678095Y-112362380D01*
X155297142Y-112362380D01*
X155201904Y-112410000D01*
X155154285Y-112457619D01*
X155106666Y-112552857D01*
X155106666Y-112695714D01*
X155154285Y-112790952D01*
X155201904Y-112838571D01*
X155297142Y-112886190D01*
X155678095Y-112886190D01*
X154773333Y-112362380D02*
X154106666Y-112362380D01*
X154535238Y-113362380D01*
G04 #@! TO.C,U2*
X153841904Y-75332380D02*
X153841904Y-76141904D01*
X153794285Y-76237142D01*
X153746666Y-76284761D01*
X153651428Y-76332380D01*
X153460952Y-76332380D01*
X153365714Y-76284761D01*
X153318095Y-76237142D01*
X153270476Y-76141904D01*
X153270476Y-75332380D01*
X152841904Y-75427619D02*
X152794285Y-75380000D01*
X152699047Y-75332380D01*
X152460952Y-75332380D01*
X152365714Y-75380000D01*
X152318095Y-75427619D01*
X152270476Y-75522857D01*
X152270476Y-75618095D01*
X152318095Y-75760952D01*
X152889523Y-76332380D01*
X152270476Y-76332380D01*
G04 #@! TO.C,R8*
X160452380Y-68098333D02*
X159976190Y-67765000D01*
X160452380Y-67526904D02*
X159452380Y-67526904D01*
X159452380Y-67907857D01*
X159500000Y-68003095D01*
X159547619Y-68050714D01*
X159642857Y-68098333D01*
X159785714Y-68098333D01*
X159880952Y-68050714D01*
X159928571Y-68003095D01*
X159976190Y-67907857D01*
X159976190Y-67526904D01*
X159880952Y-68669761D02*
X159833333Y-68574523D01*
X159785714Y-68526904D01*
X159690476Y-68479285D01*
X159642857Y-68479285D01*
X159547619Y-68526904D01*
X159500000Y-68574523D01*
X159452380Y-68669761D01*
X159452380Y-68860238D01*
X159500000Y-68955476D01*
X159547619Y-69003095D01*
X159642857Y-69050714D01*
X159690476Y-69050714D01*
X159785714Y-69003095D01*
X159833333Y-68955476D01*
X159880952Y-68860238D01*
X159880952Y-68669761D01*
X159928571Y-68574523D01*
X159976190Y-68526904D01*
X160071428Y-68479285D01*
X160261904Y-68479285D01*
X160357142Y-68526904D01*
X160404761Y-68574523D01*
X160452380Y-68669761D01*
X160452380Y-68860238D01*
X160404761Y-68955476D01*
X160357142Y-69003095D01*
X160261904Y-69050714D01*
X160071428Y-69050714D01*
X159976190Y-69003095D01*
X159928571Y-68955476D01*
X159880952Y-68860238D01*
G04 #@! TD*
M02*
