G04 #@! TF.GenerationSoftware,KiCad,Pcbnew,5.0.0+dfsg1-2*
G04 #@! TF.CreationDate,2018-09-24T13:35:07+02:00*
G04 #@! TF.ProjectId,MSGarageDoorRemote,4D53476172616765446F6F7252656D6F,1.0*
G04 #@! TF.SameCoordinates,Original*
G04 #@! TF.FileFunction,Profile,NP*
%FSLAX46Y46*%
G04 Gerber Fmt 4.6, Leading zero omitted, Abs format (unit mm)*
G04 Created by KiCad (PCBNEW 5.0.0+dfsg1-2) date Mon Sep 24 13:35:07 2018*
%MOMM*%
%LPD*%
G01*
G04 APERTURE LIST*
%ADD10C,0.160000*%
G04 APERTURE END LIST*
D10*
X127200000Y-127160000D02*
X127200000Y-56410000D01*
X169210000Y-127160000D02*
X127200000Y-127160000D01*
X169210000Y-56410000D02*
X169210000Y-127150000D01*
X127200000Y-56410000D02*
X169210000Y-56410000D01*
M02*
