G04 #@! TF.GenerationSoftware,KiCad,Pcbnew,5.0.0+dfsg1-2*
G04 #@! TF.CreationDate,2018-09-24T13:35:07+02:00*
G04 #@! TF.ProjectId,MSGarageDoorRemote,4D53476172616765446F6F7252656D6F,1.0*
G04 #@! TF.SameCoordinates,Original*
G04 #@! TF.FileFunction,Copper,L3,Inr,Mixed*
G04 #@! TF.FilePolarity,Positive*
%FSLAX46Y46*%
G04 Gerber Fmt 4.6, Leading zero omitted, Abs format (unit mm)*
G04 Created by KiCad (PCBNEW 5.0.0+dfsg1-2) date Mon Sep 24 13:35:07 2018*
%MOMM*%
%LPD*%
G01*
G04 APERTURE LIST*
G04 #@! TA.AperFunction,ViaPad*
%ADD10R,3.500000X3.500000*%
G04 #@! TD*
G04 #@! TA.AperFunction,ViaPad*
%ADD11C,3.500000*%
G04 #@! TD*
G04 #@! TA.AperFunction,ViaPad*
%ADD12O,1.998980X1.524000*%
G04 #@! TD*
G04 #@! TA.AperFunction,ViaPad*
%ADD13R,1.998980X1.524000*%
G04 #@! TD*
G04 #@! TA.AperFunction,ViaPad*
%ADD14C,2.500000*%
G04 #@! TD*
G04 #@! TA.AperFunction,ViaPad*
%ADD15R,2.500000X2.500000*%
G04 #@! TD*
G04 #@! TA.AperFunction,ViaPad*
%ADD16C,1.800000*%
G04 #@! TD*
G04 #@! TA.AperFunction,ViaPad*
%ADD17R,2.000000X1.900000*%
G04 #@! TD*
G04 #@! TA.AperFunction,ViaPad*
%ADD18C,0.800000*%
G04 #@! TD*
G04 #@! TA.AperFunction,ViaPad*
%ADD19C,0.600000*%
G04 #@! TD*
G04 #@! TA.AperFunction,ViaPad*
%ADD20C,1.500000*%
G04 #@! TD*
G04 #@! TA.AperFunction,Conductor*
%ADD21C,0.250000*%
G04 #@! TD*
G04 #@! TA.AperFunction,Conductor*
%ADD22C,0.300000*%
G04 #@! TD*
G04 APERTURE END LIST*
D10*
G04 #@! TO.N,Net-(J3-Pad1)*
G04 #@! TO.C,Door*
X161210000Y-104010000D03*
D11*
G04 #@! TO.N,Net-(J3-Pad2)*
X161210000Y-109090000D03*
G04 #@! TD*
G04 #@! TO.N,Net-(D3-Pad2)*
G04 #@! TO.C,Power*
X161130000Y-96690000D03*
D10*
G04 #@! TO.N,Net-(D3-Pad4)*
X161130000Y-91610000D03*
G04 #@! TD*
D12*
G04 #@! TO.N,GNDREF*
G04 #@! TO.C,J1*
X152028920Y-124320000D03*
G04 #@! TO.N,/RESET*
X148991080Y-124320000D03*
G04 #@! TO.N,/MOSI*
X152028920Y-121780000D03*
G04 #@! TO.N,/SCK*
X148991080Y-121780000D03*
G04 #@! TO.N,+3V3*
X152028920Y-119240000D03*
D13*
G04 #@! TO.N,/MISO*
X148991080Y-119240000D03*
G04 #@! TD*
D14*
G04 #@! TO.N,GNDREF*
G04 #@! TO.C,BT1*
X161790000Y-123730000D03*
D15*
G04 #@! TO.N,/3.3V*
X161790000Y-79030000D03*
G04 #@! TD*
D16*
G04 #@! TO.N,Net-(D2-Pad2)*
G04 #@! TO.C,D2*
X151200000Y-112210000D03*
D17*
G04 #@! TO.N,GNDREF*
X151200000Y-109670000D03*
G04 #@! TD*
D18*
G04 #@! TO.N,+3V3*
X138570000Y-100550000D03*
X134950000Y-100550000D03*
X139770000Y-100550000D03*
X140820000Y-114130000D03*
D19*
X131370000Y-106430000D03*
X130870000Y-115890000D03*
X135000000Y-124930000D03*
D18*
X142410000Y-109550000D03*
X163840000Y-58930000D03*
X141110000Y-90890000D03*
X142490000Y-90890000D03*
X141110000Y-89780000D03*
X142490000Y-89780000D03*
X166400000Y-82200000D03*
X137330010Y-100550000D03*
D19*
G04 #@! TO.N,/POR*
X163970000Y-72960000D03*
X138360000Y-118140000D03*
G04 #@! TO.N,/MOSI*
X152220000Y-68940000D03*
X142920000Y-111070000D03*
G04 #@! TO.N,/SCK*
X155140000Y-64940000D03*
X143330000Y-105830000D03*
X144510000Y-108150000D03*
G04 #@! TO.N,/MISO*
X153710000Y-66930000D03*
X145340000Y-107330000D03*
D18*
G04 #@! TO.N,Net-(R1-Pad2)*
X146520000Y-112880000D03*
D19*
G04 #@! TO.N,/SDA*
X134350000Y-110870000D03*
X130230000Y-110870000D03*
D18*
G04 #@! TO.N,/RELAY*
X146550000Y-114060000D03*
D19*
G04 #@! TO.N,/NSS*
X142890000Y-114430000D03*
X150950000Y-70890000D03*
G04 #@! TO.N,/DIO0*
X163960000Y-70940000D03*
X135920000Y-116540000D03*
D18*
G04 #@! TO.N,GNDREF*
X128340000Y-72700000D03*
X130340000Y-72700000D03*
X132340000Y-72700000D03*
X134340000Y-72700000D03*
X136340000Y-72700000D03*
X138340000Y-72700000D03*
X140340000Y-72700000D03*
X142340000Y-72700000D03*
X143570000Y-71340000D03*
X143570000Y-69340000D03*
X143570000Y-67340000D03*
X143570000Y-65340000D03*
X143570000Y-63340000D03*
X145540000Y-63280000D03*
X143570000Y-57530000D03*
X145570000Y-57530000D03*
X148570000Y-57530000D03*
X151050000Y-63220000D03*
X151050000Y-61210000D03*
X151050000Y-59210000D03*
X151050000Y-57530000D03*
X151280000Y-75800000D03*
X150010000Y-75800000D03*
D19*
X151510000Y-79250000D03*
X151510000Y-78320000D03*
X151510000Y-77320000D03*
D18*
X150150000Y-83330000D03*
X150150000Y-84560000D03*
X139650000Y-93200000D03*
X139650000Y-94350000D03*
X139650000Y-95490000D03*
X138370000Y-114070000D03*
X166950000Y-76990000D03*
D19*
X130290000Y-106560000D03*
D18*
X133520000Y-105660000D03*
D19*
X130440000Y-104060000D03*
X141390000Y-125220000D03*
D18*
X138630000Y-105880000D03*
D20*
X156390000Y-68980000D03*
G04 #@! TD*
D21*
G04 #@! TO.N,/POR*
X142060000Y-118140000D02*
X138360000Y-118140000D01*
X145320000Y-114880000D02*
X142060000Y-118140000D01*
X145320000Y-111870000D02*
X145320000Y-114880000D01*
X158260000Y-98930000D02*
X145320000Y-111870000D01*
X163970000Y-72960000D02*
X158260000Y-78670000D01*
X158260000Y-78670000D02*
X158260000Y-98930000D01*
G04 #@! TO.N,/MOSI*
X140450000Y-109210000D02*
X142310000Y-111070000D01*
X140450000Y-106360000D02*
X140450000Y-109210000D01*
X152220000Y-68940000D02*
X152220000Y-94590000D01*
X142310000Y-111070000D02*
X142920000Y-111070000D01*
X152220000Y-94590000D02*
X140450000Y-106360000D01*
G04 #@! TO.N,/SCK*
X143629999Y-105530001D02*
X143330000Y-105830000D01*
X155140000Y-67878998D02*
X154214999Y-68803999D01*
X154214999Y-94945001D02*
X143629999Y-105530001D01*
X154214999Y-68803999D02*
X154214999Y-94945001D01*
X155140000Y-64940000D02*
X155140000Y-67878998D01*
G04 #@! TO.N,/MISO*
X153710000Y-66930000D02*
X152854988Y-67785012D01*
X144915736Y-107330000D02*
X145340000Y-107330000D01*
X142220000Y-105790000D02*
X142220000Y-106820000D01*
X142730000Y-107330000D02*
X144915736Y-107330000D01*
X152854988Y-95155012D02*
X142220000Y-105790000D01*
X152854988Y-67785012D02*
X152854988Y-95155012D01*
X142220000Y-106820000D02*
X142730000Y-107330000D01*
G04 #@! TO.N,/NSS*
X139580000Y-106250000D02*
X149040001Y-96789999D01*
X149040001Y-72799999D02*
X150650001Y-71189999D01*
X149040001Y-96789999D02*
X149040001Y-72799999D01*
X139580000Y-111120000D02*
X139580000Y-106250000D01*
X142890000Y-114430000D02*
X139580000Y-111120000D01*
X150650001Y-71189999D02*
X150950000Y-70890000D01*
G04 #@! TO.N,/DIO0*
X136380000Y-116080000D02*
X135920000Y-116540000D01*
X142780000Y-116080000D02*
X136380000Y-116080000D01*
X163390000Y-70940000D02*
X157570000Y-76760000D01*
X163960000Y-70940000D02*
X163390000Y-70940000D01*
X157570000Y-76760000D02*
X157570000Y-98490000D01*
X157570000Y-98490000D02*
X144280000Y-111780000D01*
X144280000Y-114580000D02*
X142780000Y-116080000D01*
X144280000Y-111780000D02*
X144280000Y-114580000D01*
G04 #@! TD*
D22*
G04 #@! TO.N,+3V3*
G36*
X144853733Y-57044186D02*
X144849405Y-57048514D01*
X144720000Y-57360925D01*
X144720000Y-57699075D01*
X144849405Y-58011486D01*
X145088514Y-58250595D01*
X145400925Y-58380000D01*
X145739075Y-58380000D01*
X146051486Y-58250595D01*
X146290595Y-58011486D01*
X146420000Y-57699075D01*
X146420000Y-57360925D01*
X146290595Y-57048514D01*
X146286616Y-57044535D01*
X147853002Y-57044917D01*
X147849405Y-57048514D01*
X147720000Y-57360925D01*
X147720000Y-57699075D01*
X147849405Y-58011486D01*
X148088514Y-58250595D01*
X148400925Y-58380000D01*
X148739075Y-58380000D01*
X149051486Y-58250595D01*
X149290595Y-58011486D01*
X149420000Y-57699075D01*
X149420000Y-57360925D01*
X149290595Y-57048514D01*
X149287347Y-57045266D01*
X150332398Y-57045521D01*
X150329405Y-57048514D01*
X150200000Y-57360925D01*
X150200000Y-57699075D01*
X150329405Y-58011486D01*
X150568514Y-58250595D01*
X150856783Y-58370000D01*
X150568514Y-58489405D01*
X150329405Y-58728514D01*
X150200000Y-59040925D01*
X150200000Y-59379075D01*
X150329405Y-59691486D01*
X150568514Y-59930595D01*
X150880925Y-60060000D01*
X151219075Y-60060000D01*
X151531486Y-59930595D01*
X151770595Y-59691486D01*
X151900000Y-59379075D01*
X151900000Y-59040925D01*
X151770595Y-58728514D01*
X151531486Y-58489405D01*
X151243217Y-58370000D01*
X151531486Y-58250595D01*
X151770595Y-58011486D01*
X151900000Y-57699075D01*
X151900000Y-57360925D01*
X151770595Y-57048514D01*
X151767952Y-57045871D01*
X168560000Y-57049963D01*
X168560000Y-126540000D01*
X127830000Y-126540000D01*
X127830000Y-125070816D01*
X140640000Y-125070816D01*
X140640000Y-125369184D01*
X140754181Y-125644841D01*
X140965159Y-125855819D01*
X141240816Y-125970000D01*
X141539184Y-125970000D01*
X141814841Y-125855819D01*
X142025819Y-125644841D01*
X142140000Y-125369184D01*
X142140000Y-125070816D01*
X142025819Y-124795159D01*
X141814841Y-124584181D01*
X141539184Y-124470000D01*
X141240816Y-124470000D01*
X140965159Y-124584181D01*
X140754181Y-124795159D01*
X140640000Y-125070816D01*
X127830000Y-125070816D01*
X127830000Y-124320000D01*
X147517846Y-124320000D01*
X147611911Y-124792899D01*
X147879787Y-125193803D01*
X148280691Y-125461679D01*
X148634220Y-125532000D01*
X149347940Y-125532000D01*
X149701469Y-125461679D01*
X150102373Y-125193803D01*
X150370249Y-124792899D01*
X150464314Y-124320000D01*
X150555686Y-124320000D01*
X150649751Y-124792899D01*
X150917627Y-125193803D01*
X151318531Y-125461679D01*
X151672060Y-125532000D01*
X152385780Y-125532000D01*
X152739309Y-125461679D01*
X153140213Y-125193803D01*
X153408089Y-124792899D01*
X153502154Y-124320000D01*
X153408089Y-123847101D01*
X153140213Y-123446197D01*
X152999338Y-123352067D01*
X159890000Y-123352067D01*
X159890000Y-124107933D01*
X160179258Y-124806263D01*
X160713737Y-125340742D01*
X161412067Y-125630000D01*
X162167933Y-125630000D01*
X162866263Y-125340742D01*
X163400742Y-124806263D01*
X163690000Y-124107933D01*
X163690000Y-123352067D01*
X163400742Y-122653737D01*
X162866263Y-122119258D01*
X162167933Y-121830000D01*
X161412067Y-121830000D01*
X160713737Y-122119258D01*
X160179258Y-122653737D01*
X159890000Y-123352067D01*
X152999338Y-123352067D01*
X152739309Y-123178321D01*
X152385780Y-123108000D01*
X151672060Y-123108000D01*
X151318531Y-123178321D01*
X150917627Y-123446197D01*
X150649751Y-123847101D01*
X150555686Y-124320000D01*
X150464314Y-124320000D01*
X150370249Y-123847101D01*
X150102373Y-123446197D01*
X149701469Y-123178321D01*
X149347940Y-123108000D01*
X148634220Y-123108000D01*
X148280691Y-123178321D01*
X147879787Y-123446197D01*
X147611911Y-123847101D01*
X147517846Y-124320000D01*
X127830000Y-124320000D01*
X127830000Y-121780000D01*
X147517846Y-121780000D01*
X147611911Y-122252899D01*
X147879787Y-122653803D01*
X148280691Y-122921679D01*
X148634220Y-122992000D01*
X149347940Y-122992000D01*
X149701469Y-122921679D01*
X150102373Y-122653803D01*
X150370249Y-122252899D01*
X150464314Y-121780000D01*
X150555686Y-121780000D01*
X150649751Y-122252899D01*
X150917627Y-122653803D01*
X151318531Y-122921679D01*
X151672060Y-122992000D01*
X152385780Y-122992000D01*
X152739309Y-122921679D01*
X153140213Y-122653803D01*
X153408089Y-122252899D01*
X153502154Y-121780000D01*
X153408089Y-121307101D01*
X153140213Y-120906197D01*
X152739309Y-120638321D01*
X152385780Y-120568000D01*
X151672060Y-120568000D01*
X151318531Y-120638321D01*
X150917627Y-120906197D01*
X150649751Y-121307101D01*
X150555686Y-121780000D01*
X150464314Y-121780000D01*
X150370249Y-121307101D01*
X150102373Y-120906197D01*
X149701469Y-120638321D01*
X149347940Y-120568000D01*
X148634220Y-120568000D01*
X148280691Y-120638321D01*
X147879787Y-120906197D01*
X147611911Y-121307101D01*
X147517846Y-121780000D01*
X127830000Y-121780000D01*
X127830000Y-116390816D01*
X135170000Y-116390816D01*
X135170000Y-116689184D01*
X135284181Y-116964841D01*
X135495159Y-117175819D01*
X135770816Y-117290000D01*
X136069184Y-117290000D01*
X136344841Y-117175819D01*
X136555819Y-116964841D01*
X136670000Y-116689184D01*
X136670000Y-116655000D01*
X142723377Y-116655000D01*
X142730426Y-116656402D01*
X141821828Y-117565000D01*
X138845660Y-117565000D01*
X138784841Y-117504181D01*
X138509184Y-117390000D01*
X138210816Y-117390000D01*
X137935159Y-117504181D01*
X137724181Y-117715159D01*
X137610000Y-117990816D01*
X137610000Y-118289184D01*
X137724181Y-118564841D01*
X137935159Y-118775819D01*
X138210816Y-118890000D01*
X138509184Y-118890000D01*
X138784841Y-118775819D01*
X138845660Y-118715000D01*
X142003377Y-118715000D01*
X142060000Y-118726263D01*
X142116623Y-118715000D01*
X142116628Y-118715000D01*
X142284354Y-118681637D01*
X142474551Y-118554551D01*
X142506629Y-118506543D01*
X142535172Y-118478000D01*
X147532774Y-118478000D01*
X147532774Y-120002000D01*
X147567699Y-120177581D01*
X147667158Y-120326432D01*
X147816009Y-120425891D01*
X147991590Y-120460816D01*
X149990570Y-120460816D01*
X150166151Y-120425891D01*
X150315002Y-120326432D01*
X150414461Y-120177581D01*
X150449386Y-120002000D01*
X150449386Y-119779735D01*
X150819200Y-119779735D01*
X151018441Y-119999479D01*
X151367921Y-120237477D01*
X151529175Y-120203948D01*
X151529175Y-119621000D01*
X152528665Y-119621000D01*
X152528665Y-120203948D01*
X152689919Y-120237477D01*
X153039399Y-119999479D01*
X153238640Y-119779735D01*
X153217430Y-119621000D01*
X152528665Y-119621000D01*
X151529175Y-119621000D01*
X150840410Y-119621000D01*
X150819200Y-119779735D01*
X150449386Y-119779735D01*
X150449386Y-118700265D01*
X150819200Y-118700265D01*
X150840410Y-118859000D01*
X151529175Y-118859000D01*
X151529175Y-118276052D01*
X152528665Y-118276052D01*
X152528665Y-118859000D01*
X153217430Y-118859000D01*
X153238640Y-118700265D01*
X153039399Y-118480521D01*
X152689919Y-118242523D01*
X152528665Y-118276052D01*
X151529175Y-118276052D01*
X151367921Y-118242523D01*
X151018441Y-118480521D01*
X150819200Y-118700265D01*
X150449386Y-118700265D01*
X150449386Y-118478000D01*
X150414461Y-118302419D01*
X150315002Y-118153568D01*
X150166151Y-118054109D01*
X149990570Y-118019184D01*
X147991590Y-118019184D01*
X147816009Y-118054109D01*
X147667158Y-118153568D01*
X147567699Y-118302419D01*
X147532774Y-118478000D01*
X142535172Y-118478000D01*
X145686546Y-115326627D01*
X145734551Y-115294551D01*
X145861637Y-115104354D01*
X145895000Y-114936628D01*
X145895000Y-114936625D01*
X145906263Y-114880001D01*
X145895000Y-114823377D01*
X145895000Y-114607081D01*
X146068514Y-114780595D01*
X146380925Y-114910000D01*
X146719075Y-114910000D01*
X147031486Y-114780595D01*
X147270595Y-114541486D01*
X147400000Y-114229075D01*
X147400000Y-113890925D01*
X147270595Y-113578514D01*
X147147081Y-113455000D01*
X147240595Y-113361486D01*
X147370000Y-113049075D01*
X147370000Y-112710925D01*
X147240595Y-112398514D01*
X147001486Y-112159405D01*
X146689075Y-112030000D01*
X146350925Y-112030000D01*
X146038514Y-112159405D01*
X145895000Y-112302919D01*
X145895000Y-112108172D01*
X149283172Y-108720000D01*
X149741184Y-108720000D01*
X149741184Y-110620000D01*
X149776109Y-110795581D01*
X149875568Y-110944432D01*
X150024419Y-111043891D01*
X150200000Y-111078816D01*
X150421995Y-111078816D01*
X150055525Y-111445286D01*
X149850000Y-111941468D01*
X149850000Y-112478532D01*
X150055525Y-112974714D01*
X150435286Y-113354475D01*
X150931468Y-113560000D01*
X151468532Y-113560000D01*
X151964714Y-113354475D01*
X152344475Y-112974714D01*
X152550000Y-112478532D01*
X152550000Y-111941468D01*
X152344475Y-111445286D01*
X151978005Y-111078816D01*
X152200000Y-111078816D01*
X152375581Y-111043891D01*
X152524432Y-110944432D01*
X152623891Y-110795581D01*
X152658816Y-110620000D01*
X152658816Y-108720000D01*
X152637455Y-108612610D01*
X158810000Y-108612610D01*
X158810000Y-109567390D01*
X159175378Y-110449491D01*
X159850509Y-111124622D01*
X160732610Y-111490000D01*
X161687390Y-111490000D01*
X162569491Y-111124622D01*
X163244622Y-110449491D01*
X163610000Y-109567390D01*
X163610000Y-108612610D01*
X163244622Y-107730509D01*
X162569491Y-107055378D01*
X161687390Y-106690000D01*
X160732610Y-106690000D01*
X159850509Y-107055378D01*
X159175378Y-107730509D01*
X158810000Y-108612610D01*
X152637455Y-108612610D01*
X152623891Y-108544419D01*
X152524432Y-108395568D01*
X152375581Y-108296109D01*
X152200000Y-108261184D01*
X150200000Y-108261184D01*
X150024419Y-108296109D01*
X149875568Y-108395568D01*
X149776109Y-108544419D01*
X149741184Y-108720000D01*
X149283172Y-108720000D01*
X155743172Y-102260000D01*
X158797266Y-102260000D01*
X158797266Y-105760000D01*
X158847714Y-106013617D01*
X158991376Y-106228624D01*
X159206383Y-106372286D01*
X159460000Y-106422734D01*
X162960000Y-106422734D01*
X163213617Y-106372286D01*
X163428624Y-106228624D01*
X163572286Y-106013617D01*
X163622734Y-105760000D01*
X163622734Y-102260000D01*
X163572286Y-102006383D01*
X163428624Y-101791376D01*
X163213617Y-101647714D01*
X162960000Y-101597266D01*
X159460000Y-101597266D01*
X159206383Y-101647714D01*
X158991376Y-101791376D01*
X158847714Y-102006383D01*
X158797266Y-102260000D01*
X155743172Y-102260000D01*
X158626546Y-99376627D01*
X158674551Y-99344551D01*
X158801637Y-99154354D01*
X158835000Y-98986628D01*
X158835000Y-98986625D01*
X158846263Y-98930001D01*
X158835000Y-98873377D01*
X158835000Y-97420883D01*
X159095378Y-98049491D01*
X159770509Y-98724622D01*
X160652610Y-99090000D01*
X161607390Y-99090000D01*
X162489491Y-98724622D01*
X163164622Y-98049491D01*
X163530000Y-97167390D01*
X163530000Y-96212610D01*
X163164622Y-95330509D01*
X162489491Y-94655378D01*
X161607390Y-94290000D01*
X160652610Y-94290000D01*
X159770509Y-94655378D01*
X159095378Y-95330509D01*
X158835000Y-95959117D01*
X158835000Y-93714318D01*
X158911376Y-93828624D01*
X159126383Y-93972286D01*
X159380000Y-94022734D01*
X162880000Y-94022734D01*
X163133617Y-93972286D01*
X163348624Y-93828624D01*
X163492286Y-93613617D01*
X163542734Y-93360000D01*
X163542734Y-89860000D01*
X163492286Y-89606383D01*
X163348624Y-89391376D01*
X163133617Y-89247714D01*
X162880000Y-89197266D01*
X159380000Y-89197266D01*
X159126383Y-89247714D01*
X158911376Y-89391376D01*
X158835000Y-89505682D01*
X158835000Y-78908172D01*
X159877266Y-77865906D01*
X159877266Y-80280000D01*
X159927714Y-80533617D01*
X160071376Y-80748624D01*
X160286383Y-80892286D01*
X160540000Y-80942734D01*
X163040000Y-80942734D01*
X163293617Y-80892286D01*
X163508624Y-80748624D01*
X163652286Y-80533617D01*
X163702734Y-80280000D01*
X163702734Y-77780000D01*
X163652286Y-77526383D01*
X163508624Y-77311376D01*
X163293617Y-77167714D01*
X163040000Y-77117266D01*
X160625906Y-77117266D01*
X160922247Y-76820925D01*
X166100000Y-76820925D01*
X166100000Y-77159075D01*
X166229405Y-77471486D01*
X166468514Y-77710595D01*
X166780925Y-77840000D01*
X167119075Y-77840000D01*
X167431486Y-77710595D01*
X167670595Y-77471486D01*
X167800000Y-77159075D01*
X167800000Y-76820925D01*
X167670595Y-76508514D01*
X167431486Y-76269405D01*
X167119075Y-76140000D01*
X166780925Y-76140000D01*
X166468514Y-76269405D01*
X166229405Y-76508514D01*
X166100000Y-76820925D01*
X160922247Y-76820925D01*
X164033173Y-73710000D01*
X164119184Y-73710000D01*
X164394841Y-73595819D01*
X164605819Y-73384841D01*
X164720000Y-73109184D01*
X164720000Y-72810816D01*
X164605819Y-72535159D01*
X164394841Y-72324181D01*
X164119184Y-72210000D01*
X163820816Y-72210000D01*
X163545159Y-72324181D01*
X163334181Y-72535159D01*
X163220000Y-72810816D01*
X163220000Y-72896827D01*
X158145000Y-77971828D01*
X158145000Y-76998172D01*
X163557924Y-71585249D01*
X163810816Y-71690000D01*
X164109184Y-71690000D01*
X164384841Y-71575819D01*
X164595819Y-71364841D01*
X164710000Y-71089184D01*
X164710000Y-70790816D01*
X164595819Y-70515159D01*
X164384841Y-70304181D01*
X164109184Y-70190000D01*
X163810816Y-70190000D01*
X163535159Y-70304181D01*
X163474340Y-70365000D01*
X163446624Y-70365000D01*
X163390000Y-70353737D01*
X163333376Y-70365000D01*
X163333372Y-70365000D01*
X163165646Y-70398363D01*
X162975449Y-70525449D01*
X162943373Y-70573454D01*
X157203457Y-76313371D01*
X157155449Y-76345449D01*
X157028363Y-76535647D01*
X156995000Y-76703373D01*
X156995000Y-76703377D01*
X156983737Y-76760000D01*
X156995000Y-76816623D01*
X156995001Y-98251826D01*
X143913457Y-111333371D01*
X143865449Y-111365449D01*
X143738363Y-111555647D01*
X143705000Y-111723373D01*
X143705000Y-111723377D01*
X143693737Y-111780000D01*
X143705000Y-111836624D01*
X143705001Y-114341826D01*
X143640000Y-114406827D01*
X143640000Y-114280816D01*
X143525819Y-114005159D01*
X143314841Y-113794181D01*
X143039184Y-113680000D01*
X142953173Y-113680000D01*
X140155000Y-110881828D01*
X140155000Y-109728172D01*
X141863373Y-111436546D01*
X141895449Y-111484551D01*
X142085646Y-111611637D01*
X142253372Y-111645000D01*
X142253375Y-111645000D01*
X142309999Y-111656263D01*
X142366623Y-111645000D01*
X142434340Y-111645000D01*
X142495159Y-111705819D01*
X142770816Y-111820000D01*
X143069184Y-111820000D01*
X143344841Y-111705819D01*
X143555819Y-111494841D01*
X143670000Y-111219184D01*
X143670000Y-110920816D01*
X143555819Y-110645159D01*
X143344841Y-110434181D01*
X143069184Y-110320000D01*
X142770816Y-110320000D01*
X142495159Y-110434181D01*
X142491256Y-110438084D01*
X141025000Y-108971828D01*
X141025000Y-106598172D01*
X141645000Y-105978172D01*
X141645001Y-106763372D01*
X141633737Y-106820000D01*
X141678363Y-107044352D01*
X141773372Y-107186544D01*
X141773374Y-107186546D01*
X141805450Y-107234551D01*
X141853455Y-107266627D01*
X142283373Y-107696546D01*
X142315449Y-107744551D01*
X142505646Y-107871637D01*
X142673372Y-107905000D01*
X142673376Y-107905000D01*
X142730000Y-107916263D01*
X142786624Y-107905000D01*
X143799688Y-107905000D01*
X143760000Y-108000816D01*
X143760000Y-108299184D01*
X143874181Y-108574841D01*
X144085159Y-108785819D01*
X144360816Y-108900000D01*
X144659184Y-108900000D01*
X144934841Y-108785819D01*
X145145819Y-108574841D01*
X145260000Y-108299184D01*
X145260000Y-108080000D01*
X145489184Y-108080000D01*
X145764841Y-107965819D01*
X145975819Y-107754841D01*
X146090000Y-107479184D01*
X146090000Y-107180816D01*
X145975819Y-106905159D01*
X145764841Y-106694181D01*
X145489184Y-106580000D01*
X145190816Y-106580000D01*
X144915159Y-106694181D01*
X144854340Y-106755000D01*
X142968173Y-106755000D01*
X142795000Y-106581828D01*
X142795000Y-106355660D01*
X142905159Y-106465819D01*
X143180816Y-106580000D01*
X143479184Y-106580000D01*
X143754841Y-106465819D01*
X143965819Y-106254841D01*
X144080000Y-105979184D01*
X144080000Y-105893172D01*
X154581545Y-95391628D01*
X154629550Y-95359552D01*
X154756636Y-95169355D01*
X154789999Y-95001629D01*
X154789999Y-95001625D01*
X154801262Y-94945001D01*
X154789999Y-94888377D01*
X154789999Y-69042171D01*
X155260099Y-68572072D01*
X155190000Y-68741305D01*
X155190000Y-69218695D01*
X155372689Y-69659745D01*
X155710255Y-69997311D01*
X156151305Y-70180000D01*
X156628695Y-70180000D01*
X157069745Y-69997311D01*
X157407311Y-69659745D01*
X157590000Y-69218695D01*
X157590000Y-68741305D01*
X157407311Y-68300255D01*
X157069745Y-67962689D01*
X156628695Y-67780000D01*
X156151305Y-67780000D01*
X155710255Y-67962689D01*
X155709458Y-67963486D01*
X155715000Y-67935626D01*
X155715000Y-67935622D01*
X155726263Y-67878998D01*
X155715000Y-67822375D01*
X155715000Y-65425660D01*
X155775819Y-65364841D01*
X155890000Y-65089184D01*
X155890000Y-64790816D01*
X155775819Y-64515159D01*
X155564841Y-64304181D01*
X155289184Y-64190000D01*
X154990816Y-64190000D01*
X154715159Y-64304181D01*
X154504181Y-64515159D01*
X154390000Y-64790816D01*
X154390000Y-65089184D01*
X154504181Y-65364841D01*
X154565000Y-65425660D01*
X154565001Y-67640824D01*
X153848456Y-68357370D01*
X153800448Y-68389448D01*
X153673362Y-68579646D01*
X153639999Y-68747372D01*
X153639999Y-68747376D01*
X153628736Y-68803999D01*
X153639999Y-68860622D01*
X153640000Y-94706827D01*
X153429988Y-94916839D01*
X153429988Y-68023184D01*
X153773173Y-67680000D01*
X153859184Y-67680000D01*
X154134841Y-67565819D01*
X154345819Y-67354841D01*
X154460000Y-67079184D01*
X154460000Y-66780816D01*
X154345819Y-66505159D01*
X154134841Y-66294181D01*
X153859184Y-66180000D01*
X153560816Y-66180000D01*
X153285159Y-66294181D01*
X153074181Y-66505159D01*
X152960000Y-66780816D01*
X152960000Y-66866827D01*
X152488445Y-67338383D01*
X152440437Y-67370461D01*
X152313351Y-67560659D01*
X152279988Y-67728385D01*
X152279988Y-67728389D01*
X152268725Y-67785012D01*
X152279988Y-67841635D01*
X152279988Y-68190000D01*
X152070816Y-68190000D01*
X151795159Y-68304181D01*
X151584181Y-68515159D01*
X151470000Y-68790816D01*
X151470000Y-69089184D01*
X151584181Y-69364841D01*
X151645000Y-69425660D01*
X151645000Y-70608035D01*
X151585819Y-70465159D01*
X151374841Y-70254181D01*
X151099184Y-70140000D01*
X150800816Y-70140000D01*
X150525159Y-70254181D01*
X150314181Y-70465159D01*
X150200000Y-70740816D01*
X150200000Y-70826827D01*
X148673456Y-72353372D01*
X148625451Y-72385448D01*
X148593375Y-72433453D01*
X148593373Y-72433455D01*
X148498364Y-72575647D01*
X148453738Y-72799999D01*
X148465002Y-72856627D01*
X148465001Y-96551826D01*
X139429008Y-105587820D01*
X139350595Y-105398514D01*
X139111486Y-105159405D01*
X138799075Y-105030000D01*
X138460925Y-105030000D01*
X138148514Y-105159405D01*
X137909405Y-105398514D01*
X137780000Y-105710925D01*
X137780000Y-106049075D01*
X137909405Y-106361486D01*
X138148514Y-106600595D01*
X138460925Y-106730000D01*
X138799075Y-106730000D01*
X139005001Y-106644703D01*
X139005000Y-111063376D01*
X138993737Y-111120000D01*
X139005000Y-111176623D01*
X139005000Y-111176627D01*
X139038363Y-111344353D01*
X139165449Y-111534551D01*
X139213457Y-111566629D01*
X142140000Y-114493173D01*
X142140000Y-114579184D01*
X142254181Y-114854841D01*
X142465159Y-115065819D01*
X142740816Y-115180000D01*
X142866828Y-115180000D01*
X142541828Y-115505000D01*
X136436623Y-115505000D01*
X136379999Y-115493737D01*
X136323375Y-115505000D01*
X136323372Y-115505000D01*
X136155646Y-115538363D01*
X135965449Y-115665449D01*
X135933373Y-115713455D01*
X135856827Y-115790000D01*
X135770816Y-115790000D01*
X135495159Y-115904181D01*
X135284181Y-116115159D01*
X135170000Y-116390816D01*
X127830000Y-116390816D01*
X127830000Y-113900925D01*
X137520000Y-113900925D01*
X137520000Y-114239075D01*
X137649405Y-114551486D01*
X137888514Y-114790595D01*
X138200925Y-114920000D01*
X138539075Y-114920000D01*
X138851486Y-114790595D01*
X139090595Y-114551486D01*
X139220000Y-114239075D01*
X139220000Y-113900925D01*
X139090595Y-113588514D01*
X138851486Y-113349405D01*
X138539075Y-113220000D01*
X138200925Y-113220000D01*
X137888514Y-113349405D01*
X137649405Y-113588514D01*
X137520000Y-113900925D01*
X127830000Y-113900925D01*
X127830000Y-110720816D01*
X129480000Y-110720816D01*
X129480000Y-111019184D01*
X129594181Y-111294841D01*
X129805159Y-111505819D01*
X130080816Y-111620000D01*
X130379184Y-111620000D01*
X130654841Y-111505819D01*
X130865819Y-111294841D01*
X130980000Y-111019184D01*
X130980000Y-110720816D01*
X133600000Y-110720816D01*
X133600000Y-111019184D01*
X133714181Y-111294841D01*
X133925159Y-111505819D01*
X134200816Y-111620000D01*
X134499184Y-111620000D01*
X134774841Y-111505819D01*
X134985819Y-111294841D01*
X135100000Y-111019184D01*
X135100000Y-110720816D01*
X134985819Y-110445159D01*
X134774841Y-110234181D01*
X134499184Y-110120000D01*
X134200816Y-110120000D01*
X133925159Y-110234181D01*
X133714181Y-110445159D01*
X133600000Y-110720816D01*
X130980000Y-110720816D01*
X130865819Y-110445159D01*
X130654841Y-110234181D01*
X130379184Y-110120000D01*
X130080816Y-110120000D01*
X129805159Y-110234181D01*
X129594181Y-110445159D01*
X129480000Y-110720816D01*
X127830000Y-110720816D01*
X127830000Y-106410816D01*
X129540000Y-106410816D01*
X129540000Y-106709184D01*
X129654181Y-106984841D01*
X129865159Y-107195819D01*
X130140816Y-107310000D01*
X130439184Y-107310000D01*
X130714841Y-107195819D01*
X130925819Y-106984841D01*
X131040000Y-106709184D01*
X131040000Y-106410816D01*
X130925819Y-106135159D01*
X130714841Y-105924181D01*
X130439184Y-105810000D01*
X130140816Y-105810000D01*
X129865159Y-105924181D01*
X129654181Y-106135159D01*
X129540000Y-106410816D01*
X127830000Y-106410816D01*
X127830000Y-105490925D01*
X132670000Y-105490925D01*
X132670000Y-105829075D01*
X132799405Y-106141486D01*
X133038514Y-106380595D01*
X133350925Y-106510000D01*
X133689075Y-106510000D01*
X134001486Y-106380595D01*
X134240595Y-106141486D01*
X134370000Y-105829075D01*
X134370000Y-105490925D01*
X134240595Y-105178514D01*
X134001486Y-104939405D01*
X133689075Y-104810000D01*
X133350925Y-104810000D01*
X133038514Y-104939405D01*
X132799405Y-105178514D01*
X132670000Y-105490925D01*
X127830000Y-105490925D01*
X127830000Y-103910816D01*
X129690000Y-103910816D01*
X129690000Y-104209184D01*
X129804181Y-104484841D01*
X130015159Y-104695819D01*
X130290816Y-104810000D01*
X130589184Y-104810000D01*
X130864841Y-104695819D01*
X131075819Y-104484841D01*
X131190000Y-104209184D01*
X131190000Y-103910816D01*
X131075819Y-103635159D01*
X130864841Y-103424181D01*
X130589184Y-103310000D01*
X130290816Y-103310000D01*
X130015159Y-103424181D01*
X129804181Y-103635159D01*
X129690000Y-103910816D01*
X127830000Y-103910816D01*
X127830000Y-93030925D01*
X138800000Y-93030925D01*
X138800000Y-93369075D01*
X138929405Y-93681486D01*
X139022919Y-93775000D01*
X138929405Y-93868514D01*
X138800000Y-94180925D01*
X138800000Y-94519075D01*
X138929405Y-94831486D01*
X139017919Y-94920000D01*
X138929405Y-95008514D01*
X138800000Y-95320925D01*
X138800000Y-95659075D01*
X138929405Y-95971486D01*
X139168514Y-96210595D01*
X139480925Y-96340000D01*
X139819075Y-96340000D01*
X140131486Y-96210595D01*
X140370595Y-95971486D01*
X140500000Y-95659075D01*
X140500000Y-95320925D01*
X140370595Y-95008514D01*
X140282081Y-94920000D01*
X140370595Y-94831486D01*
X140500000Y-94519075D01*
X140500000Y-94180925D01*
X140370595Y-93868514D01*
X140277081Y-93775000D01*
X140370595Y-93681486D01*
X140500000Y-93369075D01*
X140500000Y-93030925D01*
X140370595Y-92718514D01*
X140131486Y-92479405D01*
X139819075Y-92350000D01*
X139480925Y-92350000D01*
X139168514Y-92479405D01*
X138929405Y-92718514D01*
X138800000Y-93030925D01*
X127830000Y-93030925D01*
X127830000Y-73392081D01*
X127858514Y-73420595D01*
X128170925Y-73550000D01*
X128509075Y-73550000D01*
X128821486Y-73420595D01*
X129060595Y-73181486D01*
X129190000Y-72869075D01*
X129190000Y-72530925D01*
X129060595Y-72218514D01*
X128862081Y-72020000D01*
X129817919Y-72020000D01*
X129619405Y-72218514D01*
X129490000Y-72530925D01*
X129490000Y-72869075D01*
X129619405Y-73181486D01*
X129858514Y-73420595D01*
X130170925Y-73550000D01*
X130509075Y-73550000D01*
X130821486Y-73420595D01*
X131060595Y-73181486D01*
X131190000Y-72869075D01*
X131190000Y-72530925D01*
X131060595Y-72218514D01*
X130862081Y-72020000D01*
X131817919Y-72020000D01*
X131619405Y-72218514D01*
X131490000Y-72530925D01*
X131490000Y-72869075D01*
X131619405Y-73181486D01*
X131858514Y-73420595D01*
X132170925Y-73550000D01*
X132509075Y-73550000D01*
X132821486Y-73420595D01*
X133060595Y-73181486D01*
X133190000Y-72869075D01*
X133190000Y-72530925D01*
X133060595Y-72218514D01*
X132862081Y-72020000D01*
X133817919Y-72020000D01*
X133619405Y-72218514D01*
X133490000Y-72530925D01*
X133490000Y-72869075D01*
X133619405Y-73181486D01*
X133858514Y-73420595D01*
X134170925Y-73550000D01*
X134509075Y-73550000D01*
X134821486Y-73420595D01*
X135060595Y-73181486D01*
X135190000Y-72869075D01*
X135190000Y-72530925D01*
X135060595Y-72218514D01*
X134862081Y-72020000D01*
X135817919Y-72020000D01*
X135619405Y-72218514D01*
X135490000Y-72530925D01*
X135490000Y-72869075D01*
X135619405Y-73181486D01*
X135858514Y-73420595D01*
X136170925Y-73550000D01*
X136509075Y-73550000D01*
X136821486Y-73420595D01*
X137060595Y-73181486D01*
X137190000Y-72869075D01*
X137190000Y-72530925D01*
X137060595Y-72218514D01*
X136862081Y-72020000D01*
X137817919Y-72020000D01*
X137619405Y-72218514D01*
X137490000Y-72530925D01*
X137490000Y-72869075D01*
X137619405Y-73181486D01*
X137858514Y-73420595D01*
X138170925Y-73550000D01*
X138509075Y-73550000D01*
X138821486Y-73420595D01*
X139060595Y-73181486D01*
X139190000Y-72869075D01*
X139190000Y-72530925D01*
X139060595Y-72218514D01*
X138862081Y-72020000D01*
X139817919Y-72020000D01*
X139619405Y-72218514D01*
X139490000Y-72530925D01*
X139490000Y-72869075D01*
X139619405Y-73181486D01*
X139858514Y-73420595D01*
X140170925Y-73550000D01*
X140509075Y-73550000D01*
X140821486Y-73420595D01*
X141060595Y-73181486D01*
X141190000Y-72869075D01*
X141190000Y-72530925D01*
X141060595Y-72218514D01*
X140862081Y-72020000D01*
X141817919Y-72020000D01*
X141619405Y-72218514D01*
X141490000Y-72530925D01*
X141490000Y-72869075D01*
X141619405Y-73181486D01*
X141858514Y-73420595D01*
X142170925Y-73550000D01*
X142509075Y-73550000D01*
X142821486Y-73420595D01*
X143060595Y-73181486D01*
X143190000Y-72869075D01*
X143190000Y-72530925D01*
X143060595Y-72218514D01*
X142821486Y-71979405D01*
X142791997Y-71967190D01*
X142818582Y-71927403D01*
X142830000Y-71870000D01*
X142830000Y-71774638D01*
X142849405Y-71821486D01*
X143088514Y-72060595D01*
X143400925Y-72190000D01*
X143739075Y-72190000D01*
X144051486Y-72060595D01*
X144290595Y-71821486D01*
X144420000Y-71509075D01*
X144420000Y-71170925D01*
X144290595Y-70858514D01*
X144051486Y-70619405D01*
X143739075Y-70490000D01*
X143400925Y-70490000D01*
X143088514Y-70619405D01*
X142849405Y-70858514D01*
X142830000Y-70905362D01*
X142830000Y-69774638D01*
X142849405Y-69821486D01*
X143088514Y-70060595D01*
X143400925Y-70190000D01*
X143739075Y-70190000D01*
X144051486Y-70060595D01*
X144290595Y-69821486D01*
X144420000Y-69509075D01*
X144420000Y-69170925D01*
X144290595Y-68858514D01*
X144051486Y-68619405D01*
X143739075Y-68490000D01*
X143400925Y-68490000D01*
X143088514Y-68619405D01*
X142849405Y-68858514D01*
X142830000Y-68905362D01*
X142830000Y-67774638D01*
X142849405Y-67821486D01*
X143088514Y-68060595D01*
X143400925Y-68190000D01*
X143739075Y-68190000D01*
X144051486Y-68060595D01*
X144290595Y-67821486D01*
X144420000Y-67509075D01*
X144420000Y-67170925D01*
X144290595Y-66858514D01*
X144051486Y-66619405D01*
X143739075Y-66490000D01*
X143400925Y-66490000D01*
X143088514Y-66619405D01*
X142849405Y-66858514D01*
X142830000Y-66905362D01*
X142830000Y-65774638D01*
X142849405Y-65821486D01*
X143088514Y-66060595D01*
X143400925Y-66190000D01*
X143739075Y-66190000D01*
X144051486Y-66060595D01*
X144290595Y-65821486D01*
X144420000Y-65509075D01*
X144420000Y-65170925D01*
X144290595Y-64858514D01*
X144051486Y-64619405D01*
X143739075Y-64490000D01*
X143400925Y-64490000D01*
X143088514Y-64619405D01*
X142849405Y-64858514D01*
X142830000Y-64905362D01*
X142830000Y-63774638D01*
X142849405Y-63821486D01*
X143088514Y-64060595D01*
X143400925Y-64190000D01*
X143739075Y-64190000D01*
X144051486Y-64060595D01*
X144290595Y-63821486D01*
X144420000Y-63509075D01*
X144420000Y-63170925D01*
X144395148Y-63110925D01*
X144690000Y-63110925D01*
X144690000Y-63449075D01*
X144819405Y-63761486D01*
X145058514Y-64000595D01*
X145370925Y-64130000D01*
X145709075Y-64130000D01*
X146021486Y-64000595D01*
X146260595Y-63761486D01*
X146390000Y-63449075D01*
X146390000Y-63110925D01*
X146365148Y-63050925D01*
X150200000Y-63050925D01*
X150200000Y-63389075D01*
X150329405Y-63701486D01*
X150568514Y-63940595D01*
X150880925Y-64070000D01*
X151219075Y-64070000D01*
X151531486Y-63940595D01*
X151770595Y-63701486D01*
X151900000Y-63389075D01*
X151900000Y-63050925D01*
X151770595Y-62738514D01*
X151531486Y-62499405D01*
X151219075Y-62370000D01*
X150880925Y-62370000D01*
X150568514Y-62499405D01*
X150329405Y-62738514D01*
X150200000Y-63050925D01*
X146365148Y-63050925D01*
X146260595Y-62798514D01*
X146021486Y-62559405D01*
X145709075Y-62430000D01*
X145370925Y-62430000D01*
X145058514Y-62559405D01*
X144819405Y-62798514D01*
X144690000Y-63110925D01*
X144395148Y-63110925D01*
X144290595Y-62858514D01*
X144051486Y-62619405D01*
X143739075Y-62490000D01*
X143400925Y-62490000D01*
X143088514Y-62619405D01*
X142849405Y-62858514D01*
X142830000Y-62905362D01*
X142830000Y-61040925D01*
X150200000Y-61040925D01*
X150200000Y-61379075D01*
X150329405Y-61691486D01*
X150568514Y-61930595D01*
X150880925Y-62060000D01*
X151219075Y-62060000D01*
X151531486Y-61930595D01*
X151770595Y-61691486D01*
X151900000Y-61379075D01*
X151900000Y-61040925D01*
X151770595Y-60728514D01*
X151531486Y-60489405D01*
X151219075Y-60360000D01*
X150880925Y-60360000D01*
X150568514Y-60489405D01*
X150329405Y-60728514D01*
X150200000Y-61040925D01*
X142830000Y-61040925D01*
X142830000Y-57964638D01*
X142849405Y-58011486D01*
X143088514Y-58250595D01*
X143400925Y-58380000D01*
X143739075Y-58380000D01*
X144051486Y-58250595D01*
X144290595Y-58011486D01*
X144420000Y-57699075D01*
X144420000Y-57360925D01*
X144290595Y-57048514D01*
X144286128Y-57044047D01*
X144853733Y-57044186D01*
X144853733Y-57044186D01*
G37*
X144853733Y-57044186D02*
X144849405Y-57048514D01*
X144720000Y-57360925D01*
X144720000Y-57699075D01*
X144849405Y-58011486D01*
X145088514Y-58250595D01*
X145400925Y-58380000D01*
X145739075Y-58380000D01*
X146051486Y-58250595D01*
X146290595Y-58011486D01*
X146420000Y-57699075D01*
X146420000Y-57360925D01*
X146290595Y-57048514D01*
X146286616Y-57044535D01*
X147853002Y-57044917D01*
X147849405Y-57048514D01*
X147720000Y-57360925D01*
X147720000Y-57699075D01*
X147849405Y-58011486D01*
X148088514Y-58250595D01*
X148400925Y-58380000D01*
X148739075Y-58380000D01*
X149051486Y-58250595D01*
X149290595Y-58011486D01*
X149420000Y-57699075D01*
X149420000Y-57360925D01*
X149290595Y-57048514D01*
X149287347Y-57045266D01*
X150332398Y-57045521D01*
X150329405Y-57048514D01*
X150200000Y-57360925D01*
X150200000Y-57699075D01*
X150329405Y-58011486D01*
X150568514Y-58250595D01*
X150856783Y-58370000D01*
X150568514Y-58489405D01*
X150329405Y-58728514D01*
X150200000Y-59040925D01*
X150200000Y-59379075D01*
X150329405Y-59691486D01*
X150568514Y-59930595D01*
X150880925Y-60060000D01*
X151219075Y-60060000D01*
X151531486Y-59930595D01*
X151770595Y-59691486D01*
X151900000Y-59379075D01*
X151900000Y-59040925D01*
X151770595Y-58728514D01*
X151531486Y-58489405D01*
X151243217Y-58370000D01*
X151531486Y-58250595D01*
X151770595Y-58011486D01*
X151900000Y-57699075D01*
X151900000Y-57360925D01*
X151770595Y-57048514D01*
X151767952Y-57045871D01*
X168560000Y-57049963D01*
X168560000Y-126540000D01*
X127830000Y-126540000D01*
X127830000Y-125070816D01*
X140640000Y-125070816D01*
X140640000Y-125369184D01*
X140754181Y-125644841D01*
X140965159Y-125855819D01*
X141240816Y-125970000D01*
X141539184Y-125970000D01*
X141814841Y-125855819D01*
X142025819Y-125644841D01*
X142140000Y-125369184D01*
X142140000Y-125070816D01*
X142025819Y-124795159D01*
X141814841Y-124584181D01*
X141539184Y-124470000D01*
X141240816Y-124470000D01*
X140965159Y-124584181D01*
X140754181Y-124795159D01*
X140640000Y-125070816D01*
X127830000Y-125070816D01*
X127830000Y-124320000D01*
X147517846Y-124320000D01*
X147611911Y-124792899D01*
X147879787Y-125193803D01*
X148280691Y-125461679D01*
X148634220Y-125532000D01*
X149347940Y-125532000D01*
X149701469Y-125461679D01*
X150102373Y-125193803D01*
X150370249Y-124792899D01*
X150464314Y-124320000D01*
X150555686Y-124320000D01*
X150649751Y-124792899D01*
X150917627Y-125193803D01*
X151318531Y-125461679D01*
X151672060Y-125532000D01*
X152385780Y-125532000D01*
X152739309Y-125461679D01*
X153140213Y-125193803D01*
X153408089Y-124792899D01*
X153502154Y-124320000D01*
X153408089Y-123847101D01*
X153140213Y-123446197D01*
X152999338Y-123352067D01*
X159890000Y-123352067D01*
X159890000Y-124107933D01*
X160179258Y-124806263D01*
X160713737Y-125340742D01*
X161412067Y-125630000D01*
X162167933Y-125630000D01*
X162866263Y-125340742D01*
X163400742Y-124806263D01*
X163690000Y-124107933D01*
X163690000Y-123352067D01*
X163400742Y-122653737D01*
X162866263Y-122119258D01*
X162167933Y-121830000D01*
X161412067Y-121830000D01*
X160713737Y-122119258D01*
X160179258Y-122653737D01*
X159890000Y-123352067D01*
X152999338Y-123352067D01*
X152739309Y-123178321D01*
X152385780Y-123108000D01*
X151672060Y-123108000D01*
X151318531Y-123178321D01*
X150917627Y-123446197D01*
X150649751Y-123847101D01*
X150555686Y-124320000D01*
X150464314Y-124320000D01*
X150370249Y-123847101D01*
X150102373Y-123446197D01*
X149701469Y-123178321D01*
X149347940Y-123108000D01*
X148634220Y-123108000D01*
X148280691Y-123178321D01*
X147879787Y-123446197D01*
X147611911Y-123847101D01*
X147517846Y-124320000D01*
X127830000Y-124320000D01*
X127830000Y-121780000D01*
X147517846Y-121780000D01*
X147611911Y-122252899D01*
X147879787Y-122653803D01*
X148280691Y-122921679D01*
X148634220Y-122992000D01*
X149347940Y-122992000D01*
X149701469Y-122921679D01*
X150102373Y-122653803D01*
X150370249Y-122252899D01*
X150464314Y-121780000D01*
X150555686Y-121780000D01*
X150649751Y-122252899D01*
X150917627Y-122653803D01*
X151318531Y-122921679D01*
X151672060Y-122992000D01*
X152385780Y-122992000D01*
X152739309Y-122921679D01*
X153140213Y-122653803D01*
X153408089Y-122252899D01*
X153502154Y-121780000D01*
X153408089Y-121307101D01*
X153140213Y-120906197D01*
X152739309Y-120638321D01*
X152385780Y-120568000D01*
X151672060Y-120568000D01*
X151318531Y-120638321D01*
X150917627Y-120906197D01*
X150649751Y-121307101D01*
X150555686Y-121780000D01*
X150464314Y-121780000D01*
X150370249Y-121307101D01*
X150102373Y-120906197D01*
X149701469Y-120638321D01*
X149347940Y-120568000D01*
X148634220Y-120568000D01*
X148280691Y-120638321D01*
X147879787Y-120906197D01*
X147611911Y-121307101D01*
X147517846Y-121780000D01*
X127830000Y-121780000D01*
X127830000Y-116390816D01*
X135170000Y-116390816D01*
X135170000Y-116689184D01*
X135284181Y-116964841D01*
X135495159Y-117175819D01*
X135770816Y-117290000D01*
X136069184Y-117290000D01*
X136344841Y-117175819D01*
X136555819Y-116964841D01*
X136670000Y-116689184D01*
X136670000Y-116655000D01*
X142723377Y-116655000D01*
X142730426Y-116656402D01*
X141821828Y-117565000D01*
X138845660Y-117565000D01*
X138784841Y-117504181D01*
X138509184Y-117390000D01*
X138210816Y-117390000D01*
X137935159Y-117504181D01*
X137724181Y-117715159D01*
X137610000Y-117990816D01*
X137610000Y-118289184D01*
X137724181Y-118564841D01*
X137935159Y-118775819D01*
X138210816Y-118890000D01*
X138509184Y-118890000D01*
X138784841Y-118775819D01*
X138845660Y-118715000D01*
X142003377Y-118715000D01*
X142060000Y-118726263D01*
X142116623Y-118715000D01*
X142116628Y-118715000D01*
X142284354Y-118681637D01*
X142474551Y-118554551D01*
X142506629Y-118506543D01*
X142535172Y-118478000D01*
X147532774Y-118478000D01*
X147532774Y-120002000D01*
X147567699Y-120177581D01*
X147667158Y-120326432D01*
X147816009Y-120425891D01*
X147991590Y-120460816D01*
X149990570Y-120460816D01*
X150166151Y-120425891D01*
X150315002Y-120326432D01*
X150414461Y-120177581D01*
X150449386Y-120002000D01*
X150449386Y-119779735D01*
X150819200Y-119779735D01*
X151018441Y-119999479D01*
X151367921Y-120237477D01*
X151529175Y-120203948D01*
X151529175Y-119621000D01*
X152528665Y-119621000D01*
X152528665Y-120203948D01*
X152689919Y-120237477D01*
X153039399Y-119999479D01*
X153238640Y-119779735D01*
X153217430Y-119621000D01*
X152528665Y-119621000D01*
X151529175Y-119621000D01*
X150840410Y-119621000D01*
X150819200Y-119779735D01*
X150449386Y-119779735D01*
X150449386Y-118700265D01*
X150819200Y-118700265D01*
X150840410Y-118859000D01*
X151529175Y-118859000D01*
X151529175Y-118276052D01*
X152528665Y-118276052D01*
X152528665Y-118859000D01*
X153217430Y-118859000D01*
X153238640Y-118700265D01*
X153039399Y-118480521D01*
X152689919Y-118242523D01*
X152528665Y-118276052D01*
X151529175Y-118276052D01*
X151367921Y-118242523D01*
X151018441Y-118480521D01*
X150819200Y-118700265D01*
X150449386Y-118700265D01*
X150449386Y-118478000D01*
X150414461Y-118302419D01*
X150315002Y-118153568D01*
X150166151Y-118054109D01*
X149990570Y-118019184D01*
X147991590Y-118019184D01*
X147816009Y-118054109D01*
X147667158Y-118153568D01*
X147567699Y-118302419D01*
X147532774Y-118478000D01*
X142535172Y-118478000D01*
X145686546Y-115326627D01*
X145734551Y-115294551D01*
X145861637Y-115104354D01*
X145895000Y-114936628D01*
X145895000Y-114936625D01*
X145906263Y-114880001D01*
X145895000Y-114823377D01*
X145895000Y-114607081D01*
X146068514Y-114780595D01*
X146380925Y-114910000D01*
X146719075Y-114910000D01*
X147031486Y-114780595D01*
X147270595Y-114541486D01*
X147400000Y-114229075D01*
X147400000Y-113890925D01*
X147270595Y-113578514D01*
X147147081Y-113455000D01*
X147240595Y-113361486D01*
X147370000Y-113049075D01*
X147370000Y-112710925D01*
X147240595Y-112398514D01*
X147001486Y-112159405D01*
X146689075Y-112030000D01*
X146350925Y-112030000D01*
X146038514Y-112159405D01*
X145895000Y-112302919D01*
X145895000Y-112108172D01*
X149283172Y-108720000D01*
X149741184Y-108720000D01*
X149741184Y-110620000D01*
X149776109Y-110795581D01*
X149875568Y-110944432D01*
X150024419Y-111043891D01*
X150200000Y-111078816D01*
X150421995Y-111078816D01*
X150055525Y-111445286D01*
X149850000Y-111941468D01*
X149850000Y-112478532D01*
X150055525Y-112974714D01*
X150435286Y-113354475D01*
X150931468Y-113560000D01*
X151468532Y-113560000D01*
X151964714Y-113354475D01*
X152344475Y-112974714D01*
X152550000Y-112478532D01*
X152550000Y-111941468D01*
X152344475Y-111445286D01*
X151978005Y-111078816D01*
X152200000Y-111078816D01*
X152375581Y-111043891D01*
X152524432Y-110944432D01*
X152623891Y-110795581D01*
X152658816Y-110620000D01*
X152658816Y-108720000D01*
X152637455Y-108612610D01*
X158810000Y-108612610D01*
X158810000Y-109567390D01*
X159175378Y-110449491D01*
X159850509Y-111124622D01*
X160732610Y-111490000D01*
X161687390Y-111490000D01*
X162569491Y-111124622D01*
X163244622Y-110449491D01*
X163610000Y-109567390D01*
X163610000Y-108612610D01*
X163244622Y-107730509D01*
X162569491Y-107055378D01*
X161687390Y-106690000D01*
X160732610Y-106690000D01*
X159850509Y-107055378D01*
X159175378Y-107730509D01*
X158810000Y-108612610D01*
X152637455Y-108612610D01*
X152623891Y-108544419D01*
X152524432Y-108395568D01*
X152375581Y-108296109D01*
X152200000Y-108261184D01*
X150200000Y-108261184D01*
X150024419Y-108296109D01*
X149875568Y-108395568D01*
X149776109Y-108544419D01*
X149741184Y-108720000D01*
X149283172Y-108720000D01*
X155743172Y-102260000D01*
X158797266Y-102260000D01*
X158797266Y-105760000D01*
X158847714Y-106013617D01*
X158991376Y-106228624D01*
X159206383Y-106372286D01*
X159460000Y-106422734D01*
X162960000Y-106422734D01*
X163213617Y-106372286D01*
X163428624Y-106228624D01*
X163572286Y-106013617D01*
X163622734Y-105760000D01*
X163622734Y-102260000D01*
X163572286Y-102006383D01*
X163428624Y-101791376D01*
X163213617Y-101647714D01*
X162960000Y-101597266D01*
X159460000Y-101597266D01*
X159206383Y-101647714D01*
X158991376Y-101791376D01*
X158847714Y-102006383D01*
X158797266Y-102260000D01*
X155743172Y-102260000D01*
X158626546Y-99376627D01*
X158674551Y-99344551D01*
X158801637Y-99154354D01*
X158835000Y-98986628D01*
X158835000Y-98986625D01*
X158846263Y-98930001D01*
X158835000Y-98873377D01*
X158835000Y-97420883D01*
X159095378Y-98049491D01*
X159770509Y-98724622D01*
X160652610Y-99090000D01*
X161607390Y-99090000D01*
X162489491Y-98724622D01*
X163164622Y-98049491D01*
X163530000Y-97167390D01*
X163530000Y-96212610D01*
X163164622Y-95330509D01*
X162489491Y-94655378D01*
X161607390Y-94290000D01*
X160652610Y-94290000D01*
X159770509Y-94655378D01*
X159095378Y-95330509D01*
X158835000Y-95959117D01*
X158835000Y-93714318D01*
X158911376Y-93828624D01*
X159126383Y-93972286D01*
X159380000Y-94022734D01*
X162880000Y-94022734D01*
X163133617Y-93972286D01*
X163348624Y-93828624D01*
X163492286Y-93613617D01*
X163542734Y-93360000D01*
X163542734Y-89860000D01*
X163492286Y-89606383D01*
X163348624Y-89391376D01*
X163133617Y-89247714D01*
X162880000Y-89197266D01*
X159380000Y-89197266D01*
X159126383Y-89247714D01*
X158911376Y-89391376D01*
X158835000Y-89505682D01*
X158835000Y-78908172D01*
X159877266Y-77865906D01*
X159877266Y-80280000D01*
X159927714Y-80533617D01*
X160071376Y-80748624D01*
X160286383Y-80892286D01*
X160540000Y-80942734D01*
X163040000Y-80942734D01*
X163293617Y-80892286D01*
X163508624Y-80748624D01*
X163652286Y-80533617D01*
X163702734Y-80280000D01*
X163702734Y-77780000D01*
X163652286Y-77526383D01*
X163508624Y-77311376D01*
X163293617Y-77167714D01*
X163040000Y-77117266D01*
X160625906Y-77117266D01*
X160922247Y-76820925D01*
X166100000Y-76820925D01*
X166100000Y-77159075D01*
X166229405Y-77471486D01*
X166468514Y-77710595D01*
X166780925Y-77840000D01*
X167119075Y-77840000D01*
X167431486Y-77710595D01*
X167670595Y-77471486D01*
X167800000Y-77159075D01*
X167800000Y-76820925D01*
X167670595Y-76508514D01*
X167431486Y-76269405D01*
X167119075Y-76140000D01*
X166780925Y-76140000D01*
X166468514Y-76269405D01*
X166229405Y-76508514D01*
X166100000Y-76820925D01*
X160922247Y-76820925D01*
X164033173Y-73710000D01*
X164119184Y-73710000D01*
X164394841Y-73595819D01*
X164605819Y-73384841D01*
X164720000Y-73109184D01*
X164720000Y-72810816D01*
X164605819Y-72535159D01*
X164394841Y-72324181D01*
X164119184Y-72210000D01*
X163820816Y-72210000D01*
X163545159Y-72324181D01*
X163334181Y-72535159D01*
X163220000Y-72810816D01*
X163220000Y-72896827D01*
X158145000Y-77971828D01*
X158145000Y-76998172D01*
X163557924Y-71585249D01*
X163810816Y-71690000D01*
X164109184Y-71690000D01*
X164384841Y-71575819D01*
X164595819Y-71364841D01*
X164710000Y-71089184D01*
X164710000Y-70790816D01*
X164595819Y-70515159D01*
X164384841Y-70304181D01*
X164109184Y-70190000D01*
X163810816Y-70190000D01*
X163535159Y-70304181D01*
X163474340Y-70365000D01*
X163446624Y-70365000D01*
X163390000Y-70353737D01*
X163333376Y-70365000D01*
X163333372Y-70365000D01*
X163165646Y-70398363D01*
X162975449Y-70525449D01*
X162943373Y-70573454D01*
X157203457Y-76313371D01*
X157155449Y-76345449D01*
X157028363Y-76535647D01*
X156995000Y-76703373D01*
X156995000Y-76703377D01*
X156983737Y-76760000D01*
X156995000Y-76816623D01*
X156995001Y-98251826D01*
X143913457Y-111333371D01*
X143865449Y-111365449D01*
X143738363Y-111555647D01*
X143705000Y-111723373D01*
X143705000Y-111723377D01*
X143693737Y-111780000D01*
X143705000Y-111836624D01*
X143705001Y-114341826D01*
X143640000Y-114406827D01*
X143640000Y-114280816D01*
X143525819Y-114005159D01*
X143314841Y-113794181D01*
X143039184Y-113680000D01*
X142953173Y-113680000D01*
X140155000Y-110881828D01*
X140155000Y-109728172D01*
X141863373Y-111436546D01*
X141895449Y-111484551D01*
X142085646Y-111611637D01*
X142253372Y-111645000D01*
X142253375Y-111645000D01*
X142309999Y-111656263D01*
X142366623Y-111645000D01*
X142434340Y-111645000D01*
X142495159Y-111705819D01*
X142770816Y-111820000D01*
X143069184Y-111820000D01*
X143344841Y-111705819D01*
X143555819Y-111494841D01*
X143670000Y-111219184D01*
X143670000Y-110920816D01*
X143555819Y-110645159D01*
X143344841Y-110434181D01*
X143069184Y-110320000D01*
X142770816Y-110320000D01*
X142495159Y-110434181D01*
X142491256Y-110438084D01*
X141025000Y-108971828D01*
X141025000Y-106598172D01*
X141645000Y-105978172D01*
X141645001Y-106763372D01*
X141633737Y-106820000D01*
X141678363Y-107044352D01*
X141773372Y-107186544D01*
X141773374Y-107186546D01*
X141805450Y-107234551D01*
X141853455Y-107266627D01*
X142283373Y-107696546D01*
X142315449Y-107744551D01*
X142505646Y-107871637D01*
X142673372Y-107905000D01*
X142673376Y-107905000D01*
X142730000Y-107916263D01*
X142786624Y-107905000D01*
X143799688Y-107905000D01*
X143760000Y-108000816D01*
X143760000Y-108299184D01*
X143874181Y-108574841D01*
X144085159Y-108785819D01*
X144360816Y-108900000D01*
X144659184Y-108900000D01*
X144934841Y-108785819D01*
X145145819Y-108574841D01*
X145260000Y-108299184D01*
X145260000Y-108080000D01*
X145489184Y-108080000D01*
X145764841Y-107965819D01*
X145975819Y-107754841D01*
X146090000Y-107479184D01*
X146090000Y-107180816D01*
X145975819Y-106905159D01*
X145764841Y-106694181D01*
X145489184Y-106580000D01*
X145190816Y-106580000D01*
X144915159Y-106694181D01*
X144854340Y-106755000D01*
X142968173Y-106755000D01*
X142795000Y-106581828D01*
X142795000Y-106355660D01*
X142905159Y-106465819D01*
X143180816Y-106580000D01*
X143479184Y-106580000D01*
X143754841Y-106465819D01*
X143965819Y-106254841D01*
X144080000Y-105979184D01*
X144080000Y-105893172D01*
X154581545Y-95391628D01*
X154629550Y-95359552D01*
X154756636Y-95169355D01*
X154789999Y-95001629D01*
X154789999Y-95001625D01*
X154801262Y-94945001D01*
X154789999Y-94888377D01*
X154789999Y-69042171D01*
X155260099Y-68572072D01*
X155190000Y-68741305D01*
X155190000Y-69218695D01*
X155372689Y-69659745D01*
X155710255Y-69997311D01*
X156151305Y-70180000D01*
X156628695Y-70180000D01*
X157069745Y-69997311D01*
X157407311Y-69659745D01*
X157590000Y-69218695D01*
X157590000Y-68741305D01*
X157407311Y-68300255D01*
X157069745Y-67962689D01*
X156628695Y-67780000D01*
X156151305Y-67780000D01*
X155710255Y-67962689D01*
X155709458Y-67963486D01*
X155715000Y-67935626D01*
X155715000Y-67935622D01*
X155726263Y-67878998D01*
X155715000Y-67822375D01*
X155715000Y-65425660D01*
X155775819Y-65364841D01*
X155890000Y-65089184D01*
X155890000Y-64790816D01*
X155775819Y-64515159D01*
X155564841Y-64304181D01*
X155289184Y-64190000D01*
X154990816Y-64190000D01*
X154715159Y-64304181D01*
X154504181Y-64515159D01*
X154390000Y-64790816D01*
X154390000Y-65089184D01*
X154504181Y-65364841D01*
X154565000Y-65425660D01*
X154565001Y-67640824D01*
X153848456Y-68357370D01*
X153800448Y-68389448D01*
X153673362Y-68579646D01*
X153639999Y-68747372D01*
X153639999Y-68747376D01*
X153628736Y-68803999D01*
X153639999Y-68860622D01*
X153640000Y-94706827D01*
X153429988Y-94916839D01*
X153429988Y-68023184D01*
X153773173Y-67680000D01*
X153859184Y-67680000D01*
X154134841Y-67565819D01*
X154345819Y-67354841D01*
X154460000Y-67079184D01*
X154460000Y-66780816D01*
X154345819Y-66505159D01*
X154134841Y-66294181D01*
X153859184Y-66180000D01*
X153560816Y-66180000D01*
X153285159Y-66294181D01*
X153074181Y-66505159D01*
X152960000Y-66780816D01*
X152960000Y-66866827D01*
X152488445Y-67338383D01*
X152440437Y-67370461D01*
X152313351Y-67560659D01*
X152279988Y-67728385D01*
X152279988Y-67728389D01*
X152268725Y-67785012D01*
X152279988Y-67841635D01*
X152279988Y-68190000D01*
X152070816Y-68190000D01*
X151795159Y-68304181D01*
X151584181Y-68515159D01*
X151470000Y-68790816D01*
X151470000Y-69089184D01*
X151584181Y-69364841D01*
X151645000Y-69425660D01*
X151645000Y-70608035D01*
X151585819Y-70465159D01*
X151374841Y-70254181D01*
X151099184Y-70140000D01*
X150800816Y-70140000D01*
X150525159Y-70254181D01*
X150314181Y-70465159D01*
X150200000Y-70740816D01*
X150200000Y-70826827D01*
X148673456Y-72353372D01*
X148625451Y-72385448D01*
X148593375Y-72433453D01*
X148593373Y-72433455D01*
X148498364Y-72575647D01*
X148453738Y-72799999D01*
X148465002Y-72856627D01*
X148465001Y-96551826D01*
X139429008Y-105587820D01*
X139350595Y-105398514D01*
X139111486Y-105159405D01*
X138799075Y-105030000D01*
X138460925Y-105030000D01*
X138148514Y-105159405D01*
X137909405Y-105398514D01*
X137780000Y-105710925D01*
X137780000Y-106049075D01*
X137909405Y-106361486D01*
X138148514Y-106600595D01*
X138460925Y-106730000D01*
X138799075Y-106730000D01*
X139005001Y-106644703D01*
X139005000Y-111063376D01*
X138993737Y-111120000D01*
X139005000Y-111176623D01*
X139005000Y-111176627D01*
X139038363Y-111344353D01*
X139165449Y-111534551D01*
X139213457Y-111566629D01*
X142140000Y-114493173D01*
X142140000Y-114579184D01*
X142254181Y-114854841D01*
X142465159Y-115065819D01*
X142740816Y-115180000D01*
X142866828Y-115180000D01*
X142541828Y-115505000D01*
X136436623Y-115505000D01*
X136379999Y-115493737D01*
X136323375Y-115505000D01*
X136323372Y-115505000D01*
X136155646Y-115538363D01*
X135965449Y-115665449D01*
X135933373Y-115713455D01*
X135856827Y-115790000D01*
X135770816Y-115790000D01*
X135495159Y-115904181D01*
X135284181Y-116115159D01*
X135170000Y-116390816D01*
X127830000Y-116390816D01*
X127830000Y-113900925D01*
X137520000Y-113900925D01*
X137520000Y-114239075D01*
X137649405Y-114551486D01*
X137888514Y-114790595D01*
X138200925Y-114920000D01*
X138539075Y-114920000D01*
X138851486Y-114790595D01*
X139090595Y-114551486D01*
X139220000Y-114239075D01*
X139220000Y-113900925D01*
X139090595Y-113588514D01*
X138851486Y-113349405D01*
X138539075Y-113220000D01*
X138200925Y-113220000D01*
X137888514Y-113349405D01*
X137649405Y-113588514D01*
X137520000Y-113900925D01*
X127830000Y-113900925D01*
X127830000Y-110720816D01*
X129480000Y-110720816D01*
X129480000Y-111019184D01*
X129594181Y-111294841D01*
X129805159Y-111505819D01*
X130080816Y-111620000D01*
X130379184Y-111620000D01*
X130654841Y-111505819D01*
X130865819Y-111294841D01*
X130980000Y-111019184D01*
X130980000Y-110720816D01*
X133600000Y-110720816D01*
X133600000Y-111019184D01*
X133714181Y-111294841D01*
X133925159Y-111505819D01*
X134200816Y-111620000D01*
X134499184Y-111620000D01*
X134774841Y-111505819D01*
X134985819Y-111294841D01*
X135100000Y-111019184D01*
X135100000Y-110720816D01*
X134985819Y-110445159D01*
X134774841Y-110234181D01*
X134499184Y-110120000D01*
X134200816Y-110120000D01*
X133925159Y-110234181D01*
X133714181Y-110445159D01*
X133600000Y-110720816D01*
X130980000Y-110720816D01*
X130865819Y-110445159D01*
X130654841Y-110234181D01*
X130379184Y-110120000D01*
X130080816Y-110120000D01*
X129805159Y-110234181D01*
X129594181Y-110445159D01*
X129480000Y-110720816D01*
X127830000Y-110720816D01*
X127830000Y-106410816D01*
X129540000Y-106410816D01*
X129540000Y-106709184D01*
X129654181Y-106984841D01*
X129865159Y-107195819D01*
X130140816Y-107310000D01*
X130439184Y-107310000D01*
X130714841Y-107195819D01*
X130925819Y-106984841D01*
X131040000Y-106709184D01*
X131040000Y-106410816D01*
X130925819Y-106135159D01*
X130714841Y-105924181D01*
X130439184Y-105810000D01*
X130140816Y-105810000D01*
X129865159Y-105924181D01*
X129654181Y-106135159D01*
X129540000Y-106410816D01*
X127830000Y-106410816D01*
X127830000Y-105490925D01*
X132670000Y-105490925D01*
X132670000Y-105829075D01*
X132799405Y-106141486D01*
X133038514Y-106380595D01*
X133350925Y-106510000D01*
X133689075Y-106510000D01*
X134001486Y-106380595D01*
X134240595Y-106141486D01*
X134370000Y-105829075D01*
X134370000Y-105490925D01*
X134240595Y-105178514D01*
X134001486Y-104939405D01*
X133689075Y-104810000D01*
X133350925Y-104810000D01*
X133038514Y-104939405D01*
X132799405Y-105178514D01*
X132670000Y-105490925D01*
X127830000Y-105490925D01*
X127830000Y-103910816D01*
X129690000Y-103910816D01*
X129690000Y-104209184D01*
X129804181Y-104484841D01*
X130015159Y-104695819D01*
X130290816Y-104810000D01*
X130589184Y-104810000D01*
X130864841Y-104695819D01*
X131075819Y-104484841D01*
X131190000Y-104209184D01*
X131190000Y-103910816D01*
X131075819Y-103635159D01*
X130864841Y-103424181D01*
X130589184Y-103310000D01*
X130290816Y-103310000D01*
X130015159Y-103424181D01*
X129804181Y-103635159D01*
X129690000Y-103910816D01*
X127830000Y-103910816D01*
X127830000Y-93030925D01*
X138800000Y-93030925D01*
X138800000Y-93369075D01*
X138929405Y-93681486D01*
X139022919Y-93775000D01*
X138929405Y-93868514D01*
X138800000Y-94180925D01*
X138800000Y-94519075D01*
X138929405Y-94831486D01*
X139017919Y-94920000D01*
X138929405Y-95008514D01*
X138800000Y-95320925D01*
X138800000Y-95659075D01*
X138929405Y-95971486D01*
X139168514Y-96210595D01*
X139480925Y-96340000D01*
X139819075Y-96340000D01*
X140131486Y-96210595D01*
X140370595Y-95971486D01*
X140500000Y-95659075D01*
X140500000Y-95320925D01*
X140370595Y-95008514D01*
X140282081Y-94920000D01*
X140370595Y-94831486D01*
X140500000Y-94519075D01*
X140500000Y-94180925D01*
X140370595Y-93868514D01*
X140277081Y-93775000D01*
X140370595Y-93681486D01*
X140500000Y-93369075D01*
X140500000Y-93030925D01*
X140370595Y-92718514D01*
X140131486Y-92479405D01*
X139819075Y-92350000D01*
X139480925Y-92350000D01*
X139168514Y-92479405D01*
X138929405Y-92718514D01*
X138800000Y-93030925D01*
X127830000Y-93030925D01*
X127830000Y-73392081D01*
X127858514Y-73420595D01*
X128170925Y-73550000D01*
X128509075Y-73550000D01*
X128821486Y-73420595D01*
X129060595Y-73181486D01*
X129190000Y-72869075D01*
X129190000Y-72530925D01*
X129060595Y-72218514D01*
X128862081Y-72020000D01*
X129817919Y-72020000D01*
X129619405Y-72218514D01*
X129490000Y-72530925D01*
X129490000Y-72869075D01*
X129619405Y-73181486D01*
X129858514Y-73420595D01*
X130170925Y-73550000D01*
X130509075Y-73550000D01*
X130821486Y-73420595D01*
X131060595Y-73181486D01*
X131190000Y-72869075D01*
X131190000Y-72530925D01*
X131060595Y-72218514D01*
X130862081Y-72020000D01*
X131817919Y-72020000D01*
X131619405Y-72218514D01*
X131490000Y-72530925D01*
X131490000Y-72869075D01*
X131619405Y-73181486D01*
X131858514Y-73420595D01*
X132170925Y-73550000D01*
X132509075Y-73550000D01*
X132821486Y-73420595D01*
X133060595Y-73181486D01*
X133190000Y-72869075D01*
X133190000Y-72530925D01*
X133060595Y-72218514D01*
X132862081Y-72020000D01*
X133817919Y-72020000D01*
X133619405Y-72218514D01*
X133490000Y-72530925D01*
X133490000Y-72869075D01*
X133619405Y-73181486D01*
X133858514Y-73420595D01*
X134170925Y-73550000D01*
X134509075Y-73550000D01*
X134821486Y-73420595D01*
X135060595Y-73181486D01*
X135190000Y-72869075D01*
X135190000Y-72530925D01*
X135060595Y-72218514D01*
X134862081Y-72020000D01*
X135817919Y-72020000D01*
X135619405Y-72218514D01*
X135490000Y-72530925D01*
X135490000Y-72869075D01*
X135619405Y-73181486D01*
X135858514Y-73420595D01*
X136170925Y-73550000D01*
X136509075Y-73550000D01*
X136821486Y-73420595D01*
X137060595Y-73181486D01*
X137190000Y-72869075D01*
X137190000Y-72530925D01*
X137060595Y-72218514D01*
X136862081Y-72020000D01*
X137817919Y-72020000D01*
X137619405Y-72218514D01*
X137490000Y-72530925D01*
X137490000Y-72869075D01*
X137619405Y-73181486D01*
X137858514Y-73420595D01*
X138170925Y-73550000D01*
X138509075Y-73550000D01*
X138821486Y-73420595D01*
X139060595Y-73181486D01*
X139190000Y-72869075D01*
X139190000Y-72530925D01*
X139060595Y-72218514D01*
X138862081Y-72020000D01*
X139817919Y-72020000D01*
X139619405Y-72218514D01*
X139490000Y-72530925D01*
X139490000Y-72869075D01*
X139619405Y-73181486D01*
X139858514Y-73420595D01*
X140170925Y-73550000D01*
X140509075Y-73550000D01*
X140821486Y-73420595D01*
X141060595Y-73181486D01*
X141190000Y-72869075D01*
X141190000Y-72530925D01*
X141060595Y-72218514D01*
X140862081Y-72020000D01*
X141817919Y-72020000D01*
X141619405Y-72218514D01*
X141490000Y-72530925D01*
X141490000Y-72869075D01*
X141619405Y-73181486D01*
X141858514Y-73420595D01*
X142170925Y-73550000D01*
X142509075Y-73550000D01*
X142821486Y-73420595D01*
X143060595Y-73181486D01*
X143190000Y-72869075D01*
X143190000Y-72530925D01*
X143060595Y-72218514D01*
X142821486Y-71979405D01*
X142791997Y-71967190D01*
X142818582Y-71927403D01*
X142830000Y-71870000D01*
X142830000Y-71774638D01*
X142849405Y-71821486D01*
X143088514Y-72060595D01*
X143400925Y-72190000D01*
X143739075Y-72190000D01*
X144051486Y-72060595D01*
X144290595Y-71821486D01*
X144420000Y-71509075D01*
X144420000Y-71170925D01*
X144290595Y-70858514D01*
X144051486Y-70619405D01*
X143739075Y-70490000D01*
X143400925Y-70490000D01*
X143088514Y-70619405D01*
X142849405Y-70858514D01*
X142830000Y-70905362D01*
X142830000Y-69774638D01*
X142849405Y-69821486D01*
X143088514Y-70060595D01*
X143400925Y-70190000D01*
X143739075Y-70190000D01*
X144051486Y-70060595D01*
X144290595Y-69821486D01*
X144420000Y-69509075D01*
X144420000Y-69170925D01*
X144290595Y-68858514D01*
X144051486Y-68619405D01*
X143739075Y-68490000D01*
X143400925Y-68490000D01*
X143088514Y-68619405D01*
X142849405Y-68858514D01*
X142830000Y-68905362D01*
X142830000Y-67774638D01*
X142849405Y-67821486D01*
X143088514Y-68060595D01*
X143400925Y-68190000D01*
X143739075Y-68190000D01*
X144051486Y-68060595D01*
X144290595Y-67821486D01*
X144420000Y-67509075D01*
X144420000Y-67170925D01*
X144290595Y-66858514D01*
X144051486Y-66619405D01*
X143739075Y-66490000D01*
X143400925Y-66490000D01*
X143088514Y-66619405D01*
X142849405Y-66858514D01*
X142830000Y-66905362D01*
X142830000Y-65774638D01*
X142849405Y-65821486D01*
X143088514Y-66060595D01*
X143400925Y-66190000D01*
X143739075Y-66190000D01*
X144051486Y-66060595D01*
X144290595Y-65821486D01*
X144420000Y-65509075D01*
X144420000Y-65170925D01*
X144290595Y-64858514D01*
X144051486Y-64619405D01*
X143739075Y-64490000D01*
X143400925Y-64490000D01*
X143088514Y-64619405D01*
X142849405Y-64858514D01*
X142830000Y-64905362D01*
X142830000Y-63774638D01*
X142849405Y-63821486D01*
X143088514Y-64060595D01*
X143400925Y-64190000D01*
X143739075Y-64190000D01*
X144051486Y-64060595D01*
X144290595Y-63821486D01*
X144420000Y-63509075D01*
X144420000Y-63170925D01*
X144395148Y-63110925D01*
X144690000Y-63110925D01*
X144690000Y-63449075D01*
X144819405Y-63761486D01*
X145058514Y-64000595D01*
X145370925Y-64130000D01*
X145709075Y-64130000D01*
X146021486Y-64000595D01*
X146260595Y-63761486D01*
X146390000Y-63449075D01*
X146390000Y-63110925D01*
X146365148Y-63050925D01*
X150200000Y-63050925D01*
X150200000Y-63389075D01*
X150329405Y-63701486D01*
X150568514Y-63940595D01*
X150880925Y-64070000D01*
X151219075Y-64070000D01*
X151531486Y-63940595D01*
X151770595Y-63701486D01*
X151900000Y-63389075D01*
X151900000Y-63050925D01*
X151770595Y-62738514D01*
X151531486Y-62499405D01*
X151219075Y-62370000D01*
X150880925Y-62370000D01*
X150568514Y-62499405D01*
X150329405Y-62738514D01*
X150200000Y-63050925D01*
X146365148Y-63050925D01*
X146260595Y-62798514D01*
X146021486Y-62559405D01*
X145709075Y-62430000D01*
X145370925Y-62430000D01*
X145058514Y-62559405D01*
X144819405Y-62798514D01*
X144690000Y-63110925D01*
X144395148Y-63110925D01*
X144290595Y-62858514D01*
X144051486Y-62619405D01*
X143739075Y-62490000D01*
X143400925Y-62490000D01*
X143088514Y-62619405D01*
X142849405Y-62858514D01*
X142830000Y-62905362D01*
X142830000Y-61040925D01*
X150200000Y-61040925D01*
X150200000Y-61379075D01*
X150329405Y-61691486D01*
X150568514Y-61930595D01*
X150880925Y-62060000D01*
X151219075Y-62060000D01*
X151531486Y-61930595D01*
X151770595Y-61691486D01*
X151900000Y-61379075D01*
X151900000Y-61040925D01*
X151770595Y-60728514D01*
X151531486Y-60489405D01*
X151219075Y-60360000D01*
X150880925Y-60360000D01*
X150568514Y-60489405D01*
X150329405Y-60728514D01*
X150200000Y-61040925D01*
X142830000Y-61040925D01*
X142830000Y-57964638D01*
X142849405Y-58011486D01*
X143088514Y-58250595D01*
X143400925Y-58380000D01*
X143739075Y-58380000D01*
X144051486Y-58250595D01*
X144290595Y-58011486D01*
X144420000Y-57699075D01*
X144420000Y-57360925D01*
X144290595Y-57048514D01*
X144286128Y-57044047D01*
X144853733Y-57044186D01*
G04 #@! TD*
M02*
